{"help": "https://data.gov.sg/api/3/action/help_show?name=datastore_search", "success": true, "result": {"resource_id": "d_ebc5ab87086db484f88045b47411ebc5", "fields": [{"type": "text", "id": "month"}, {"type": "text", "id": "town"}, {"type": "text", "id": "flat_type"}, {"type": "text", "id": "block"}, {"type": "text", "id": "street_name"}, {"type": "text", "id": "storey_range"}, {"type": "text", "id": "floor_area_sqm"}, {"type": "text", "id": "flat_model"}, {"type": "text", "id": "lease_commence_date"}, {"type": "text", "id": "resale_price"}, {"type": "int4", "id": "_id"}], "records": [{"_id": 1, "month": "1990-01", "town": "ANG MO KIO", "flat_type": "1 ROOM", "block": "309", "street_name": "ANG MO KIO AVE 1", "storey_range": "10 TO 12", "floor_area_sqm": "31", "flat_model": "IMPROVED", "lease_commence_date": "1977", "resale_price": "9000"}, {"_id": 2, "month": "1990-01", "town": "ANG MO KIO", "flat_type": "1 ROOM", "block": "309", "street_name": "ANG MO KIO AVE 1", "storey_range": "04 TO 06", "floor_area_sqm": "31", "flat_model": "IMPROVED", "lease_commence_date": "1977", "resale_price": "6000"}, {"_id": 3, "month": "1990-01", "town": "ANG MO KIO", "flat_type": "1 ROOM", "block": "309", "street_name": "ANG MO KIO AVE 1", "storey_range": "10 TO 12", "floor_area_sqm": "31", "flat_model": "IMPROVED", "lease_commence_date": "1977", "resale_price": "8000"}, {"_id": 4, "month": "1990-01", "town": "ANG MO KIO", "flat_type": "1 ROOM", "block": "309", "street_name": "ANG MO KIO AVE 1", "storey_range": "07 TO 09", "floor_area_sqm": "31", "flat_model": "IMPROVED", "lease_commence_date": "1977", "resale_price": "6000"}, {"_id": 5, "month": "1990-01", "town": "ANG MO KIO", "flat_type": "3 ROOM", "block": "216", "street_name": "ANG MO KIO AVE 1", "storey_range": "04 TO 06", "floor_area_sqm": "73", "flat_model": "NEW GENERATION", "lease_commence_date": "1976", "resale_price": "47200"}, {"_id": 6, "month": "1990-01", "town": "ANG MO KIO", "flat_type": "3 ROOM", "block": "211", "street_name": "ANG MO KIO AVE 3", "storey_range": "01 TO 03", "floor_area_sqm": "67", "flat_model": "NEW GENERATION", "lease_commence_date": "1977", "resale_price": "46000"}, {"_id": 7, "month": "1990-01", "town": "ANG MO KIO", "flat_type": "3 ROOM", "block": "202", "street_name": "ANG MO KIO AVE 3", "storey_range": "07 TO 09", "floor_area_sqm": "67", "flat_model": "NEW GENERATION", "lease_commence_date": "1977", "resale_price": "42000"}, {"_id": 8, "month": "1990-01", "town": "ANG MO KIO", "flat_type": "3 ROOM", "block": "235", "street_name": "ANG MO KIO AVE 3", "storey_range": "10 TO 12", "floor_area_sqm": "67", "flat_model": "NEW GENERATION", "lease_commence_date": "1977", "resale_price": "38000"}, {"_id": 9, "month": "1990-01", "town": "ANG MO KIO", "flat_type": "3 ROOM", "block": "235", "street_name": "ANG MO KIO AVE 3", "storey_range": "04 TO 06", "floor_area_sqm": "67", "flat_model": "NEW GENERATION", "lease_commence_date": "1977", "resale_price": "40000"}, {"_id": 10, "month": "1990-01", "town": "ANG MO KIO", "flat_type": "3 ROOM", "block": "232", "street_name": "ANG MO KIO AVE 3", "storey_range": "01 TO 03", "floor_area_sqm": "67", "flat_model": "NEW GENERATION", "lease_commence_date": "1977", "resale_price": "47000"}, {"_id": 11, "month": "1990-01", "town": "ANG MO KIO", "flat_type": "3 ROOM", "block": "232", "street_name": "ANG MO KIO AVE 3", "storey_range": "07 TO 09", "floor_area_sqm": "67", "flat_model": "NEW GENERATION", "lease_commence_date": "1977", "resale_price": "43000"}, {"_id": 12, "month": "1990-01", "town": "ANG MO KIO", "flat_type": "3 ROOM", "block": "308", "street_name": "ANG MO KIO AVE 1", "storey_range": "07 TO 09", "floor_area_sqm": "82", "flat_model": "NEW GENERATION", "lease_commence_date": "1976", "resale_price": "59000"}, {"_id": 13, "month": "1990-01", "town": "ANG MO KIO", "flat_type": "3 ROOM", "block": "308", "street_name": "ANG MO KIO AVE 1", "storey_range": "10 TO 12", "floor_area_sqm": "67", "flat_model": "NEW GENERATION", "lease_commence_date": "1976", "resale_price": "47200"}, {"_id": 14, "month": "1990-01", "town": "ANG MO KIO", "flat_type": "3 ROOM", "block": "220", "street_name": "ANG MO KIO AVE 1", "storey_range": "07 TO 09", "floor_area_sqm": "67", "flat_model": "NEW GENERATION", "lease_commence_date": "1977", "resale_price": "35000"}, {"_id": 15, "month": "1990-01", "town": "ANG MO KIO", "flat_type": "3 ROOM", "block": "219", "street_name": "ANG MO KIO AVE 1", "storey_range": "07 TO 09", "floor_area_sqm": "82", "flat_model": "NEW GENERATION", "lease_commence_date": "1977", "resale_price": "52000"}, {"_id": 16, "month": "1990-01", "town": "ANG MO KIO", "flat_type": "3 ROOM", "block": "247", "street_name": "ANG MO KIO AVE 3", "storey_range": "04 TO 06", "floor_area_sqm": "82", "flat_model": "NEW GENERATION", "lease_commence_date": "1978", "resale_price": "56900"}, {"_id": 17, "month": "1990-01", "town": "ANG MO KIO", "flat_type": "3 ROOM", "block": "320", "street_name": "ANG MO KIO AVE 1", "storey_range": "07 TO 09", "floor_area_sqm": "73", "flat_model": "NEW GENERATION", "lease_commence_date": "1977", "resale_price": "40000"}, {"_id": 18, "month": "1990-01", "town": "ANG MO KIO", "flat_type": "3 ROOM", "block": "252", "street_name": "ANG MO KIO AVE 4", "storey_range": "07 TO 09", "floor_area_sqm": "67", "flat_model": "NEW GENERATION", "lease_commence_date": "1977", "resale_price": "40000"}, {"_id": 19, "month": "1990-01", "town": "ANG MO KIO", "flat_type": "3 ROOM", "block": "223", "street_name": "ANG MO KIO AVE 1", "storey_range": "04 TO 06", "floor_area_sqm": "67", "flat_model": "NEW GENERATION", "lease_commence_date": "1978", "resale_price": "47200"}, {"_id": 20, "month": "1990-01", "town": "ANG MO KIO", "flat_type": "3 ROOM", "block": "223", "street_name": "ANG MO KIO AVE 1", "storey_range": "10 TO 12", "floor_area_sqm": "67", "flat_model": "NEW GENERATION", "lease_commence_date": "1978", "resale_price": "37000"}, {"_id": 21, "month": "1990-01", "town": "ANG MO KIO", "flat_type": "3 ROOM", "block": "230", "street_name": "ANG MO KIO AVE 3", "storey_range": "07 TO 09", "floor_area_sqm": "82", "flat_model": "NEW GENERATION", "lease_commence_date": "1978", "resale_price": "60000"}, {"_id": 22, "month": "1990-01", "town": "ANG MO KIO", "flat_type": "3 ROOM", "block": "329", "street_name": "ANG MO KIO AVE 3", "storey_range": "07 TO 09", "floor_area_sqm": "73", "flat_model": "NEW GENERATION", "lease_commence_date": "1978", "resale_price": "40000"}, {"_id": 23, "month": "1990-01", "town": "ANG MO KIO", "flat_type": "3 ROOM", "block": "313", "street_name": "ANG MO KIO AVE 3", "storey_range": "10 TO 12", "floor_area_sqm": "73", "flat_model": "NEW GENERATION", "lease_commence_date": "1978", "resale_price": "41000"}, {"_id": 24, "month": "1990-01", "town": "ANG MO KIO", "flat_type": "3 ROOM", "block": "117", "street_name": "ANG MO KIO AVE 4", "storey_range": "04 TO 06", "floor_area_sqm": "74", "flat_model": "NEW GENERATION", "lease_commence_date": "1978", "resale_price": "37000"}, {"_id": 25, "month": "1990-01", "town": "ANG MO KIO", "flat_type": "3 ROOM", "block": "110", "street_name": "ANG MO KIO AVE 4", "storey_range": "10 TO 12", "floor_area_sqm": "67", "flat_model": "NEW GENERATION", "lease_commence_date": "1978", "resale_price": "34000"}, {"_id": 26, "month": "1990-01", "town": "ANG MO KIO", "flat_type": "3 ROOM", "block": "343", "street_name": "ANG MO KIO AVE 3", "storey_range": "07 TO 09", "floor_area_sqm": "73", "flat_model": "NEW GENERATION", "lease_commence_date": "1978", "resale_price": "47000"}, {"_id": 27, "month": "1990-01", "town": "ANG MO KIO", "flat_type": "3 ROOM", "block": "345", "street_name": "ANG MO KIO AVE 3", "storey_range": "04 TO 06", "floor_area_sqm": "73", "flat_model": "NEW GENERATION", "lease_commence_date": "1978", "resale_price": "36000"}, {"_id": 28, "month": "1990-01", "town": "ANG MO KIO", "flat_type": "3 ROOM", "block": "346", "street_name": "ANG MO KIO AVE 3", "storey_range": "10 TO 12", "floor_area_sqm": "73", "flat_model": "NEW GENERATION", "lease_commence_date": "1978", "resale_price": "45000"}, {"_id": 29, "month": "1990-01", "town": "ANG MO KIO", "flat_type": "3 ROOM", "block": "121", "street_name": "ANG MO KIO AVE 3", "storey_range": "04 TO 06", "floor_area_sqm": "67", "flat_model": "NEW GENERATION", "lease_commence_date": "1978", "resale_price": "44000"}, {"_id": 30, "month": "1990-01", "town": "ANG MO KIO", "flat_type": "3 ROOM", "block": "129", "street_name": "ANG MO KIO AVE 3", "storey_range": "04 TO 06", "floor_area_sqm": "73", "flat_model": "NEW GENERATION", "lease_commence_date": "1979", "resale_price": "44000"}, {"_id": 31, "month": "1990-01", "town": "ANG MO KIO", "flat_type": "3 ROOM", "block": "130", "street_name": "ANG MO KIO AVE 3", "storey_range": "01 TO 03", "floor_area_sqm": "88", "flat_model": "NEW GENERATION", "lease_commence_date": "1979", "resale_price": "50000"}, {"_id": 32, "month": "1990-01", "town": "ANG MO KIO", "flat_type": "3 ROOM", "block": "128", "street_name": "ANG MO KIO AVE 3", "storey_range": "07 TO 09", "floor_area_sqm": "67", "flat_model": "NEW GENERATION", "lease_commence_date": "1978", "resale_price": "47000"}, {"_id": 33, "month": "1990-01", "town": "ANG MO KIO", "flat_type": "3 ROOM", "block": "127", "street_name": "ANG MO KIO AVE 3", "storey_range": "07 TO 09", "floor_area_sqm": "67", "flat_model": "NEW GENERATION", "lease_commence_date": "1978", "resale_price": "47200"}, {"_id": 34, "month": "1990-01", "town": "ANG MO KIO", "flat_type": "3 ROOM", "block": "126", "street_name": "ANG MO KIO AVE 3", "storey_range": "10 TO 12", "floor_area_sqm": "82", "flat_model": "NEW GENERATION", "lease_commence_date": "1978", "resale_price": "58000"}, {"_id": 35, "month": "1990-01", "town": "ANG MO KIO", "flat_type": "3 ROOM", "block": "403", "street_name": "ANG MO KIO AVE 10", "storey_range": "10 TO 12", "floor_area_sqm": "67", "flat_model": "NEW GENERATION", "lease_commence_date": "1979", "resale_price": "45000"}, {"_id": 36, "month": "1990-01", "town": "ANG MO KIO", "flat_type": "3 ROOM", "block": "404", "street_name": "ANG MO KIO AVE 10", "storey_range": "10 TO 12", "floor_area_sqm": "67", "flat_model": "NEW GENERATION", "lease_commence_date": "1979", "resale_price": "44000"}, {"_id": 37, "month": "1990-01", "town": "ANG MO KIO", "flat_type": "3 ROOM", "block": "405", "street_name": "ANG MO KIO AVE 10", "storey_range": "04 TO 06", "floor_area_sqm": "67", "flat_model": "NEW GENERATION", "lease_commence_date": "1979", "resale_price": "47000"}, {"_id": 38, "month": "1990-01", "town": "ANG MO KIO", "flat_type": "3 ROOM", "block": "417", "street_name": "ANG MO KIO AVE 10", "storey_range": "13 TO 15", "floor_area_sqm": "89", "flat_model": "NEW GENERATION", "lease_commence_date": "1979", "resale_price": "53000"}, {"_id": 39, "month": "1990-01", "town": "ANG MO KIO", "flat_type": "3 ROOM", "block": "418", "street_name": "ANG MO KIO AVE 10", "storey_range": "04 TO 06", "floor_area_sqm": "74", "flat_model": "NEW GENERATION", "lease_commence_date": "1979", "resale_price": "47000"}, {"_id": 40, "month": "1990-01", "town": "ANG MO KIO", "flat_type": "3 ROOM", "block": "418", "street_name": "ANG MO KIO AVE 10", "storey_range": "07 TO 09", "floor_area_sqm": "74", "flat_model": "NEW GENERATION", "lease_commence_date": "1979", "resale_price": "44000"}, {"_id": 41, "month": "1990-01", "town": "ANG MO KIO", "flat_type": "3 ROOM", "block": "419", "street_name": "ANG MO KIO AVE 10", "storey_range": "07 TO 09", "floor_area_sqm": "74", "flat_model": "NEW GENERATION", "lease_commence_date": "1979", "resale_price": "47000"}, {"_id": 42, "month": "1990-01", "town": "ANG MO KIO", "flat_type": "3 ROOM", "block": "441", "street_name": "ANG MO KIO AVE 10", "storey_range": "07 TO 09", "floor_area_sqm": "67", "flat_model": "NEW GENERATION", "lease_commence_date": "1979", "resale_price": "47000"}, {"_id": 43, "month": "1990-01", "town": "ANG MO KIO", "flat_type": "3 ROOM", "block": "442", "street_name": "ANG MO KIO AVE 10", "storey_range": "04 TO 06", "floor_area_sqm": "67", "flat_model": "NEW GENERATION", "lease_commence_date": "1979", "resale_price": "45000"}, {"_id": 44, "month": "1990-01", "town": "ANG MO KIO", "flat_type": "3 ROOM", "block": "442", "street_name": "ANG MO KIO AVE 10", "storey_range": "07 TO 09", "floor_area_sqm": "67", "flat_model": "NEW GENERATION", "lease_commence_date": "1979", "resale_price": "40000"}, {"_id": 45, "month": "1990-01", "town": "ANG MO KIO", "flat_type": "3 ROOM", "block": "442", "street_name": "ANG MO KIO AVE 10", "storey_range": "07 TO 09", "floor_area_sqm": "67", "flat_model": "NEW GENERATION", "lease_commence_date": "1979", "resale_price": "47000"}, {"_id": 46, "month": "1990-01", "town": "ANG MO KIO", "flat_type": "3 ROOM", "block": "443", "street_name": "ANG MO KIO AVE 10", "storey_range": "07 TO 09", "floor_area_sqm": "67", "flat_model": "NEW GENERATION", "lease_commence_date": "1979", "resale_price": "42000"}, {"_id": 47, "month": "1990-01", "town": "ANG MO KIO", "flat_type": "3 ROOM", "block": "443", "street_name": "ANG MO KIO AVE 10", "storey_range": "04 TO 06", "floor_area_sqm": "82", "flat_model": "NEW GENERATION", "lease_commence_date": "1979", "resale_price": "56000"}, {"_id": 48, "month": "1990-01", "town": "ANG MO KIO", "flat_type": "3 ROOM", "block": "444", "street_name": "ANG MO KIO AVE 10", "storey_range": "10 TO 12", "floor_area_sqm": "67", "flat_model": "NEW GENERATION", "lease_commence_date": "1979", "resale_price": "36000"}, {"_id": 49, "month": "1990-01", "town": "ANG MO KIO", "flat_type": "3 ROOM", "block": "450", "street_name": "ANG MO KIO AVE 10", "storey_range": "01 TO 03", "floor_area_sqm": "83", "flat_model": "NEW GENERATION", "lease_commence_date": "1979", "resale_price": "48000"}, {"_id": 50, "month": "1990-01", "town": "ANG MO KIO", "flat_type": "3 ROOM", "block": "435", "street_name": "ANG MO KIO AVE 10", "storey_range": "01 TO 03", "floor_area_sqm": "67", "flat_model": "NEW GENERATION", "lease_commence_date": "1979", "resale_price": "47200"}, {"_id": 51, "month": "1990-01", "town": "ANG MO KIO", "flat_type": "3 ROOM", "block": "435", "street_name": "ANG MO KIO AVE 10", "storey_range": "01 TO 03", "floor_area_sqm": "67", "flat_model": "NEW GENERATION", "lease_commence_date": "1979", "resale_price": "37000"}, {"_id": 52, "month": "1990-01", "town": "ANG MO KIO", "flat_type": "3 ROOM", "block": "433", "street_name": "ANG MO KIO AVE 10", "storey_range": "07 TO 09", "floor_area_sqm": "67", "flat_model": "NEW GENERATION", "lease_commence_date": "1979", "resale_price": "45000"}, {"_id": 53, "month": "1990-01", "town": "ANG MO KIO", "flat_type": "3 ROOM", "block": "434", "street_name": "ANG MO KIO AVE 10", "storey_range": "07 TO 09", "floor_area_sqm": "67", "flat_model": "NEW GENERATION", "lease_commence_date": "1979", "resale_price": "37000"}, {"_id": 54, "month": "1990-01", "town": "ANG MO KIO", "flat_type": "3 ROOM", "block": "424", "street_name": "ANG MO KIO AVE 3", "storey_range": "10 TO 12", "floor_area_sqm": "73", "flat_model": "NEW GENERATION", "lease_commence_date": "1979", "resale_price": "34000"}, {"_id": 55, "month": "1990-01", "town": "ANG MO KIO", "flat_type": "3 ROOM", "block": "424", "street_name": "ANG MO KIO AVE 3", "storey_range": "01 TO 03", "floor_area_sqm": "73", "flat_model": "NEW GENERATION", "lease_commence_date": "1979", "resale_price": "40000"}, {"_id": 56, "month": "1990-01", "town": "ANG MO KIO", "flat_type": "3 ROOM", "block": "424", "street_name": "ANG MO KIO AVE 3", "storey_range": "07 TO 09", "floor_area_sqm": "73", "flat_model": "NEW GENERATION", "lease_commence_date": "1979", "resale_price": "41000"}, {"_id": 57, "month": "1990-01", "town": "ANG MO KIO", "flat_type": "3 ROOM", "block": "425", "street_name": "ANG MO KIO AVE 3", "storey_range": "01 TO 03", "floor_area_sqm": "67", "flat_model": "NEW GENERATION", "lease_commence_date": "1979", "resale_price": "41000"}, {"_id": 58, "month": "1990-01", "town": "ANG MO KIO", "flat_type": "3 ROOM", "block": "466", "street_name": "ANG MO KIO AVE 10", "storey_range": "04 TO 06", "floor_area_sqm": "82", "flat_model": "NEW GENERATION", "lease_commence_date": "1984", "resale_price": "50000"}, {"_id": 59, "month": "1990-01", "town": "ANG MO KIO", "flat_type": "3 ROOM", "block": "471", "street_name": "ANG MO KIO AVE 10", "storey_range": "01 TO 03", "floor_area_sqm": "67", "flat_model": "NEW GENERATION", "lease_commence_date": "1979", "resale_price": "45000"}, {"_id": 60, "month": "1990-01", "town": "ANG MO KIO", "flat_type": "3 ROOM", "block": "471", "street_name": "ANG MO KIO AVE 10", "storey_range": "07 TO 09", "floor_area_sqm": "67", "flat_model": "NEW GENERATION", "lease_commence_date": "1979", "resale_price": "38000"}, {"_id": 61, "month": "1990-01", "town": "ANG MO KIO", "flat_type": "3 ROOM", "block": "474", "street_name": "ANG MO KIO AVE 10", "storey_range": "04 TO 06", "floor_area_sqm": "67", "flat_model": "NEW GENERATION", "lease_commence_date": "1984", "resale_price": "37500"}, {"_id": 62, "month": "1990-01", "town": "ANG MO KIO", "flat_type": "3 ROOM", "block": "474", "street_name": "ANG MO KIO AVE 10", "storey_range": "13 TO 15", "floor_area_sqm": "67", "flat_model": "NEW GENERATION", "lease_commence_date": "1984", "resale_price": "52500"}, {"_id": 63, "month": "1990-01", "town": "ANG MO KIO", "flat_type": "3 ROOM", "block": "570", "street_name": "ANG MO KIO AVE 3", "storey_range": "07 TO 09", "floor_area_sqm": "67", "flat_model": "NEW GENERATION", "lease_commence_date": "1979", "resale_price": "35000"}, {"_id": 64, "month": "1990-01", "town": "ANG MO KIO", "flat_type": "3 ROOM", "block": "586", "street_name": "ANG MO KIO AVE 3", "storey_range": "04 TO 06", "floor_area_sqm": "67", "flat_model": "NEW GENERATION", "lease_commence_date": "1979", "resale_price": "35000"}, {"_id": 65, "month": "1990-01", "town": "ANG MO KIO", "flat_type": "3 ROOM", "block": "455", "street_name": "ANG MO KIO AVE 10", "storey_range": "10 TO 12", "floor_area_sqm": "67", "flat_model": "NEW GENERATION", "lease_commence_date": "1980", "resale_price": "47200"}, {"_id": 66, "month": "1990-01", "town": "ANG MO KIO", "flat_type": "3 ROOM", "block": "455", "street_name": "ANG MO KIO AVE 10", "storey_range": "10 TO 12", "floor_area_sqm": "67", "flat_model": "NEW GENERATION", "lease_commence_date": "1980", "resale_price": "43500"}, {"_id": 67, "month": "1990-01", "town": "ANG MO KIO", "flat_type": "3 ROOM", "block": "465", "street_name": "ANG MO KIO AVE 10", "storey_range": "07 TO 09", "floor_area_sqm": "68", "flat_model": "NEW GENERATION", "lease_commence_date": "1980", "resale_price": "37000"}, {"_id": 68, "month": "1990-01", "town": "ANG MO KIO", "flat_type": "3 ROOM", "block": "463", "street_name": "ANG MO KIO AVE 10", "storey_range": "01 TO 03", "floor_area_sqm": "68", "flat_model": "NEW GENERATION", "lease_commence_date": "1980", "resale_price": "47200"}, {"_id": 69, "month": "1990-01", "town": "ANG MO KIO", "flat_type": "3 ROOM", "block": "564", "street_name": "ANG MO KIO AVE 3", "storey_range": "04 TO 06", "floor_area_sqm": "68", "flat_model": "NEW GENERATION", "lease_commence_date": "1985", "resale_price": "52000"}, {"_id": 70, "month": "1990-01", "town": "ANG MO KIO", "flat_type": "3 ROOM", "block": "560", "street_name": "ANG MO KIO AVE 10", "storey_range": "01 TO 03", "floor_area_sqm": "67", "flat_model": "NEW GENERATION", "lease_commence_date": "1980", "resale_price": "37000"}, {"_id": 71, "month": "1990-01", "town": "ANG MO KIO", "flat_type": "3 ROOM", "block": "560", "street_name": "ANG MO KIO AVE 10", "storey_range": "13 TO 15", "floor_area_sqm": "67", "flat_model": "NEW GENERATION", "lease_commence_date": "1980", "resale_price": "38000"}, {"_id": 72, "month": "1990-01", "town": "ANG MO KIO", "flat_type": "3 ROOM", "block": "558", "street_name": "ANG MO KIO AVE 10", "storey_range": "07 TO 09", "floor_area_sqm": "82", "flat_model": "NEW GENERATION", "lease_commence_date": "1980", "resale_price": "45000"}, {"_id": 73, "month": "1990-01", "town": "ANG MO KIO", "flat_type": "3 ROOM", "block": "558", "street_name": "ANG MO KIO AVE 10", "storey_range": "10 TO 12", "floor_area_sqm": "67", "flat_model": "NEW GENERATION", "lease_commence_date": "1980", "resale_price": "47000"}, {"_id": 74, "month": "1990-01", "town": "ANG MO KIO", "flat_type": "3 ROOM", "block": "559", "street_name": "ANG MO KIO AVE 10", "storey_range": "07 TO 09", "floor_area_sqm": "68", "flat_model": "NEW GENERATION", "lease_commence_date": "1980", "resale_price": "46000"}, {"_id": 75, "month": "1990-01", "town": "ANG MO KIO", "flat_type": "3 ROOM", "block": "538", "street_name": "ANG MO KIO AVE 5", "storey_range": "04 TO 06", "floor_area_sqm": "68", "flat_model": "NEW GENERATION", "lease_commence_date": "1980", "resale_price": "47200"}, {"_id": 76, "month": "1990-01", "town": "ANG MO KIO", "flat_type": "3 ROOM", "block": "538", "street_name": "ANG MO KIO AVE 5", "storey_range": "04 TO 06", "floor_area_sqm": "68", "flat_model": "NEW GENERATION", "lease_commence_date": "1980", "resale_price": "46500"}, {"_id": 77, "month": "1990-01", "town": "ANG MO KIO", "flat_type": "3 ROOM", "block": "534", "street_name": "ANG MO KIO AVE 10", "storey_range": "04 TO 06", "floor_area_sqm": "68", "flat_model": "NEW GENERATION", "lease_commence_date": "1980", "resale_price": "35000"}, {"_id": 78, "month": "1990-01", "town": "ANG MO KIO", "flat_type": "3 ROOM", "block": "534", "street_name": "ANG MO KIO AVE 10", "storey_range": "04 TO 06", "floor_area_sqm": "68", "flat_model": "NEW GENERATION", "lease_commence_date": "1980", "resale_price": "43000"}, {"_id": 79, "month": "1990-01", "town": "ANG MO KIO", "flat_type": "3 ROOM", "block": "601", "street_name": "ANG MO KIO AVE 5", "storey_range": "01 TO 03", "floor_area_sqm": "67", "flat_model": "NEW GENERATION", "lease_commence_date": "1980", "resale_price": "47200"}, {"_id": 80, "month": "1990-01", "town": "ANG MO KIO", "flat_type": "3 ROOM", "block": "603", "street_name": "ANG MO KIO AVE 5", "storey_range": "07 TO 09", "floor_area_sqm": "67", "flat_model": "NEW GENERATION", "lease_commence_date": "1980", "resale_price": "46500"}, {"_id": 81, "month": "1990-01", "town": "ANG MO KIO", "flat_type": "3 ROOM", "block": "604", "street_name": "ANG MO KIO AVE 5", "storey_range": "07 TO 09", "floor_area_sqm": "67", "flat_model": "NEW GENERATION", "lease_commence_date": "1980", "resale_price": "47000"}, {"_id": 82, "month": "1990-01", "town": "ANG MO KIO", "flat_type": "3 ROOM", "block": "608", "street_name": "ANG MO KIO AVE 5", "storey_range": "01 TO 03", "floor_area_sqm": "82", "flat_model": "NEW GENERATION", "lease_commence_date": "1980", "resale_price": "44000"}, {"_id": 83, "month": "1990-01", "town": "ANG MO KIO", "flat_type": "3 ROOM", "block": "611", "street_name": "ANG MO KIO AVE 5", "storey_range": "10 TO 12", "floor_area_sqm": "67", "flat_model": "NEW GENERATION", "lease_commence_date": "1980", "resale_price": "47000"}, {"_id": 84, "month": "1990-01", "town": "ANG MO KIO", "flat_type": "3 ROOM", "block": "505", "street_name": "ANG MO KIO AVE 8", "storey_range": "01 TO 03", "floor_area_sqm": "68", "flat_model": "NEW GENERATION", "lease_commence_date": "1980", "resale_price": "43000"}, {"_id": 85, "month": "1990-01", "town": "ANG MO KIO", "flat_type": "3 ROOM", "block": "505", "street_name": "ANG MO KIO AVE 8", "storey_range": "04 TO 06", "floor_area_sqm": "68", "flat_model": "NEW GENERATION", "lease_commence_date": "1980", "resale_price": "34500"}, {"_id": 86, "month": "1990-01", "town": "ANG MO KIO", "flat_type": "3 ROOM", "block": "503", "street_name": "ANG MO KIO AVE 5", "storey_range": "04 TO 06", "floor_area_sqm": "68", "flat_model": "NEW GENERATION", "lease_commence_date": "1981", "resale_price": "45300"}, {"_id": 87, "month": "1990-01", "town": "ANG MO KIO", "flat_type": "3 ROOM", "block": "610", "street_name": "ANG MO KIO AVE 4", "storey_range": "07 TO 09", "floor_area_sqm": "82", "flat_model": "NEW GENERATION", "lease_commence_date": "1980", "resale_price": "50000"}, {"_id": 88, "month": "1990-01", "town": "ANG MO KIO", "flat_type": "3 ROOM", "block": "607", "street_name": "ANG MO KIO AVE 4", "storey_range": "10 TO 12", "floor_area_sqm": "68", "flat_model": "NEW GENERATION", "lease_commence_date": "1980", "resale_price": "42000"}, {"_id": 89, "month": "1990-01", "town": "ANG MO KIO", "flat_type": "3 ROOM", "block": "524", "street_name": "ANG MO KIO AVE 5", "storey_range": "04 TO 06", "floor_area_sqm": "68", "flat_model": "NEW GENERATION", "lease_commence_date": "1980", "resale_price": "47200"}, {"_id": 90, "month": "1990-01", "town": "ANG MO KIO", "flat_type": "3 ROOM", "block": "513", "street_name": "ANG MO KIO AVE 8", "storey_range": "01 TO 03", "floor_area_sqm": "67", "flat_model": "NEW GENERATION", "lease_commence_date": "1984", "resale_price": "52500"}, {"_id": 91, "month": "1990-01", "town": "ANG MO KIO", "flat_type": "3 ROOM", "block": "513", "street_name": "ANG MO KIO AVE 8", "storey_range": "04 TO 06", "floor_area_sqm": "82", "flat_model": "NEW GENERATION", "lease_commence_date": "1984", "resale_price": "45500"}, {"_id": 92, "month": "1990-01", "town": "ANG MO KIO", "flat_type": "3 ROOM", "block": "643", "street_name": "ANG MO KIO AVE 5", "storey_range": "07 TO 09", "floor_area_sqm": "75", "flat_model": "NEW GENERATION", "lease_commence_date": "1980", "resale_price": "47000"}, {"_id": 93, "month": "1990-01", "town": "ANG MO KIO", "flat_type": "3 ROOM", "block": "542", "street_name": "ANG MO KIO AVE 10", "storey_range": "04 TO 06", "floor_area_sqm": "68", "flat_model": "NEW GENERATION", "lease_commence_date": "1981", "resale_price": "35000"}, {"_id": 94, "month": "1990-01", "town": "ANG MO KIO", "flat_type": "3 ROOM", "block": "548", "street_name": "ANG MO KIO AVE 10", "storey_range": "01 TO 03", "floor_area_sqm": "68", "flat_model": "NEW GENERATION", "lease_commence_date": "1981", "resale_price": "44000"}, {"_id": 95, "month": "1990-01", "town": "ANG MO KIO", "flat_type": "3 ROOM", "block": "550", "street_name": "ANG MO KIO AVE 10", "storey_range": "07 TO 09", "floor_area_sqm": "82", "flat_model": "NEW GENERATION", "lease_commence_date": "1981", "resale_price": "63000"}, {"_id": 96, "month": "1990-01", "town": "ANG MO KIO", "flat_type": "3 ROOM", "block": "639", "street_name": "ANG MO KIO AVE 6", "storey_range": "01 TO 03", "floor_area_sqm": "68", "flat_model": "NEW GENERATION", "lease_commence_date": "1980", "resale_price": "45600"}, {"_id": 97, "month": "1990-01", "town": "ANG MO KIO", "flat_type": "3 ROOM", "block": "637", "street_name": "ANG MO KIO AVE 6", "storey_range": "01 TO 03", "floor_area_sqm": "68", "flat_model": "NEW GENERATION", "lease_commence_date": "1980", "resale_price": "47000"}, {"_id": 98, "month": "1990-01", "town": "ANG MO KIO", "flat_type": "3 ROOM", "block": "330", "street_name": "ANG MO KIO AVE 1", "storey_range": "07 TO 09", "floor_area_sqm": "68", "flat_model": "NEW GENERATION", "lease_commence_date": "1981", "resale_price": "52000"}, {"_id": 99, "month": "1990-01", "town": "ANG MO KIO", "flat_type": "3 ROOM", "block": "333", "street_name": "ANG MO KIO AVE 1", "storey_range": "07 TO 09", "floor_area_sqm": "68", "flat_model": "NEW GENERATION", "lease_commence_date": "1981", "resale_price": "43000"}, {"_id": 100, "month": "1990-01", "town": "ANG MO KIO", "flat_type": "3 ROOM", "block": "156", "street_name": "ANG MO KIO AVE 4", "storey_range": "04 TO 06", "floor_area_sqm": "68", "flat_model": "NEW GENERATION", "lease_commence_date": "1981", "resale_price": "38000"}], "_links": {"start": "/api/action/datastore_search?resource_id=d_ebc5ab87086db484f88045b47411ebc5", "next": "/api/action/datastore_search?resource_id=d_ebc5ab87086db484f88045b47411ebc5&offset=100"}, "total": 287196}}