{"help": "https://data.gov.sg/api/3/action/help_show?name=datastore_search", "success": true, "result": {"resource_id": "d_2d5ff9ea31397b66239f245f57751537", "fields": [{"type": "text", "id": "month"}, {"type": "text", "id": "town"}, {"type": "text", "id": "flat_type"}, {"type": "text", "id": "block"}, {"type": "text", "id": "street_name"}, {"type": "text", "id": "storey_range"}, {"type": "text", "id": "floor_area_sqm"}, {"type": "text", "id": "flat_model"}, {"type": "text", "id": "lease_commence_date"}, {"type": "text", "id": "resale_price"}, {"type": "int4", "id": "_id"}], "records": [{"_id": 1, "month": "2012-03", "town": "ANG MO KIO", "flat_type": "2 ROOM", "block": "172", "street_name": "ANG MO KIO AVE 4", "storey_range": "06 TO 10", "floor_area_sqm": "45", "flat_model": "Improved", "lease_commence_date": "1986", "resale_price": "250000"}, {"_id": 2, "month": "2012-03", "town": "ANG MO KIO", "flat_type": "2 ROOM", "block": "510", "street_name": "ANG MO KIO AVE 8", "storey_range": "01 TO 05", "floor_area_sqm": "44", "flat_model": "Improved", "lease_commence_date": "1980", "resale_price": "265000"}, {"_id": 3, "month": "2012-03", "town": "ANG MO KIO", "flat_type": "3 ROOM", "block": "610", "street_name": "ANG MO KIO AVE 4", "storey_range": "06 TO 10", "floor_area_sqm": "68", "flat_model": "New Generation", "lease_commence_date": "1980", "resale_price": "315000"}, {"_id": 4, "month": "2012-03", "town": "ANG MO KIO", "flat_type": "3 ROOM", "block": "474", "street_name": "ANG MO KIO AVE 10", "storey_range": "01 TO 05", "floor_area_sqm": "67", "flat_model": "New Generation", "lease_commence_date": "1984", "resale_price": "320000"}, {"_id": 5, "month": "2012-03", "town": "ANG MO KIO", "flat_type": "3 ROOM", "block": "604", "street_name": "ANG MO KIO AVE 5", "storey_range": "06 TO 10", "floor_area_sqm": "67", "flat_model": "New Generation", "lease_commence_date": "1980", "resale_price": "321000"}, {"_id": 6, "month": "2012-03", "town": "ANG MO KIO", "flat_type": "3 ROOM", "block": "154", "street_name": "ANG MO KIO AVE 5", "storey_range": "01 TO 05", "floor_area_sqm": "68", "flat_model": "New Generation", "lease_commence_date": "1981", "resale_price": "321000"}, {"_id": 7, "month": "2012-03", "town": "ANG MO KIO", "flat_type": "3 ROOM", "block": "110", "street_name": "ANG MO KIO AVE 4", "storey_range": "01 TO 05", "floor_area_sqm": "67", "flat_model": "New Generation", "lease_commence_date": "1978", "resale_price": "323000"}, {"_id": 8, "month": "2012-03", "town": "ANG MO KIO", "flat_type": "3 ROOM", "block": "445", "street_name": "ANG MO KIO AVE 10", "storey_range": "01 TO 05", "floor_area_sqm": "67", "flat_model": "New Generation", "lease_commence_date": "1979", "resale_price": "325000"}, {"_id": 9, "month": "2012-03", "town": "ANG MO KIO", "flat_type": "3 ROOM", "block": "476", "street_name": "ANG MO KIO AVE 10", "storey_range": "11 TO 15", "floor_area_sqm": "67", "flat_model": "New Generation", "lease_commence_date": "1979", "resale_price": "328000"}, {"_id": 10, "month": "2012-03", "town": "ANG MO KIO", "flat_type": "3 ROOM", "block": "631", "street_name": "ANG MO KIO AVE 4", "storey_range": "01 TO 05", "floor_area_sqm": "67", "flat_model": "New Generation", "lease_commence_date": "1985", "resale_price": "330000"}, {"_id": 11, "month": "2012-03", "town": "ANG MO KIO", "flat_type": "3 ROOM", "block": "155", "street_name": "ANG MO KIO AVE 4", "storey_range": "11 TO 15", "floor_area_sqm": "68", "flat_model": "New Generation", "lease_commence_date": "1981", "resale_price": "331000"}, {"_id": 12, "month": "2012-03", "town": "ANG MO KIO", "flat_type": "3 ROOM", "block": "560", "street_name": "ANG MO KIO AVE 10", "storey_range": "06 TO 10", "floor_area_sqm": "67", "flat_model": "New Generation", "lease_commence_date": "1980", "resale_price": "332000"}, {"_id": 13, "month": "2012-03", "town": "ANG MO KIO", "flat_type": "3 ROOM", "block": "561", "street_name": "ANG MO KIO AVE 10", "storey_range": "01 TO 05", "floor_area_sqm": "68", "flat_model": "New Generation", "lease_commence_date": "1980", "resale_price": "333000"}, {"_id": 14, "month": "2012-03", "town": "ANG MO KIO", "flat_type": "3 ROOM", "block": "405", "street_name": "ANG MO KIO AVE 10", "storey_range": "06 TO 10", "floor_area_sqm": "67", "flat_model": "New Generation", "lease_commence_date": "1979", "resale_price": "333000"}, {"_id": 15, "month": "2012-03", "town": "ANG MO KIO", "flat_type": "3 ROOM", "block": "548", "street_name": "ANG MO KIO AVE 10", "storey_range": "01 TO 05", "floor_area_sqm": "68", "flat_model": "New Generation", "lease_commence_date": "1981", "resale_price": "335000"}, {"_id": 16, "month": "2012-03", "town": "ANG MO KIO", "flat_type": "3 ROOM", "block": "126", "street_name": "ANG MO KIO AVE 3", "storey_range": "06 TO 10", "floor_area_sqm": "67", "flat_model": "New Generation", "lease_commence_date": "1978", "resale_price": "336000"}, {"_id": 17, "month": "2012-03", "town": "ANG MO KIO", "flat_type": "3 ROOM", "block": "558", "street_name": "ANG MO KIO AVE 10", "storey_range": "06 TO 10", "floor_area_sqm": "67", "flat_model": "New Generation", "lease_commence_date": "1980", "resale_price": "336000"}, {"_id": 18, "month": "2012-03", "town": "ANG MO KIO", "flat_type": "3 ROOM", "block": "212", "street_name": "ANG MO KIO AVE 3", "storey_range": "01 TO 05", "floor_area_sqm": "67", "flat_model": "New Generation", "lease_commence_date": "1977", "resale_price": "336000"}, {"_id": 19, "month": "2012-03", "town": "ANG MO KIO", "flat_type": "3 ROOM", "block": "333", "street_name": "ANG MO KIO AVE 1", "storey_range": "06 TO 10", "floor_area_sqm": "68", "flat_model": "New Generation", "lease_commence_date": "1981", "resale_price": "338000"}, {"_id": 20, "month": "2012-03", "town": "ANG MO KIO", "flat_type": "3 ROOM", "block": "114", "street_name": "ANG MO KIO AVE 4", "storey_range": "01 TO 05", "floor_area_sqm": "73", "flat_model": "New Generation", "lease_commence_date": "1978", "resale_price": "339000"}, {"_id": 21, "month": "2012-03", "town": "ANG MO KIO", "flat_type": "3 ROOM", "block": "151", "street_name": "ANG MO KIO AVE 5", "storey_range": "06 TO 10", "floor_area_sqm": "68", "flat_model": "New Generation", "lease_commence_date": "1981", "resale_price": "339000"}, {"_id": 22, "month": "2012-03", "town": "ANG MO KIO", "flat_type": "3 ROOM", "block": "503", "street_name": "ANG MO KIO AVE 5", "storey_range": "06 TO 10", "floor_area_sqm": "68", "flat_model": "New Generation", "lease_commence_date": "1981", "resale_price": "340000"}, {"_id": 23, "month": "2012-03", "town": "ANG MO KIO", "flat_type": "3 ROOM", "block": "230", "street_name": "ANG MO KIO AVE 3", "storey_range": "01 TO 05", "floor_area_sqm": "67", "flat_model": "New Generation", "lease_commence_date": "1978", "resale_price": "340000"}, {"_id": 24, "month": "2012-03", "town": "ANG MO KIO", "flat_type": "3 ROOM", "block": "157", "street_name": "ANG MO KIO AVE 4", "storey_range": "01 TO 05", "floor_area_sqm": "69", "flat_model": "New Generation", "lease_commence_date": "1980", "resale_price": "342000"}, {"_id": 25, "month": "2012-03", "town": "ANG MO KIO", "flat_type": "3 ROOM", "block": "604", "street_name": "ANG MO KIO AVE 5", "storey_range": "01 TO 05", "floor_area_sqm": "67", "flat_model": "New Generation", "lease_commence_date": "1980", "resale_price": "342000"}, {"_id": 26, "month": "2012-03", "town": "ANG MO KIO", "flat_type": "3 ROOM", "block": "213", "street_name": "ANG MO KIO AVE 3", "storey_range": "06 TO 10", "floor_area_sqm": "67", "flat_model": "New Generation", "lease_commence_date": "1976", "resale_price": "347000"}, {"_id": 27, "month": "2012-03", "town": "ANG MO KIO", "flat_type": "3 ROOM", "block": "419", "street_name": "ANG MO KIO AVE 10", "storey_range": "01 TO 05", "floor_area_sqm": "74", "flat_model": "New Generation", "lease_commence_date": "1979", "resale_price": "348000"}, {"_id": 28, "month": "2012-03", "town": "ANG MO KIO", "flat_type": "3 ROOM", "block": "549", "street_name": "ANG MO KIO AVE 10", "storey_range": "16 TO 20", "floor_area_sqm": "68", "flat_model": "New Generation", "lease_commence_date": "1981", "resale_price": "350000"}, {"_id": 29, "month": "2012-03", "town": "ANG MO KIO", "flat_type": "3 ROOM", "block": "201", "street_name": "ANG MO KIO AVE 3", "storey_range": "06 TO 10", "floor_area_sqm": "67", "flat_model": "New Generation", "lease_commence_date": "1977", "resale_price": "350000"}, {"_id": 30, "month": "2012-03", "town": "ANG MO KIO", "flat_type": "3 ROOM", "block": "533", "street_name": "ANG MO KIO AVE 5", "storey_range": "06 TO 10", "floor_area_sqm": "67", "flat_model": "New Generation", "lease_commence_date": "1980", "resale_price": "350000"}, {"_id": 31, "month": "2012-03", "town": "ANG MO KIO", "flat_type": "3 ROOM", "block": "533", "street_name": "ANG MO KIO AVE 5", "storey_range": "11 TO 15", "floor_area_sqm": "67", "flat_model": "New Generation", "lease_commence_date": "1980", "resale_price": "350000"}, {"_id": 32, "month": "2012-03", "town": "ANG MO KIO", "flat_type": "3 ROOM", "block": "571", "street_name": "ANG MO KIO AVE 3", "storey_range": "06 TO 10", "floor_area_sqm": "67", "flat_model": "New Generation", "lease_commence_date": "1979", "resale_price": "353000"}, {"_id": 33, "month": "2012-03", "town": "ANG MO KIO", "flat_type": "3 ROOM", "block": "623", "street_name": "ANG MO KIO AVE 9", "storey_range": "11 TO 15", "floor_area_sqm": "68", "flat_model": "New Generation", "lease_commence_date": "1980", "resale_price": "355000"}, {"_id": 34, "month": "2012-03", "town": "ANG MO KIO", "flat_type": "3 ROOM", "block": "465", "street_name": "ANG MO KIO AVE 10", "storey_range": "06 TO 10", "floor_area_sqm": "68", "flat_model": "New Generation", "lease_commence_date": "1980", "resale_price": "357000"}, {"_id": 35, "month": "2012-03", "town": "ANG MO KIO", "flat_type": "3 ROOM", "block": "119", "street_name": "ANG MO KIO AVE 3", "storey_range": "06 TO 10", "floor_area_sqm": "67", "flat_model": "New Generation", "lease_commence_date": "1978", "resale_price": "358000"}, {"_id": 36, "month": "2012-03", "town": "ANG MO KIO", "flat_type": "3 ROOM", "block": "121", "street_name": "ANG MO KIO AVE 3", "storey_range": "06 TO 10", "floor_area_sqm": "67", "flat_model": "New Generation", "lease_commence_date": "1978", "resale_price": "360000"}, {"_id": 37, "month": "2012-03", "town": "ANG MO KIO", "flat_type": "3 ROOM", "block": "418", "street_name": "ANG MO KIO AVE 10", "storey_range": "01 TO 05", "floor_area_sqm": "74", "flat_model": "New Generation", "lease_commence_date": "1979", "resale_price": "363000"}, {"_id": 38, "month": "2012-03", "town": "ANG MO KIO", "flat_type": "3 ROOM", "block": "607", "street_name": "ANG MO KIO AVE 4", "storey_range": "11 TO 15", "floor_area_sqm": "68", "flat_model": "New Generation", "lease_commence_date": "1980", "resale_price": "367000"}, {"_id": 39, "month": "2012-03", "town": "ANG MO KIO", "flat_type": "3 ROOM", "block": "216", "street_name": "ANG MO KIO AVE 1", "storey_range": "06 TO 10", "floor_area_sqm": "73", "flat_model": "New Generation", "lease_commence_date": "1976", "resale_price": "368000"}, {"_id": 40, "month": "2012-03", "town": "ANG MO KIO", "flat_type": "3 ROOM", "block": "103", "street_name": "ANG MO KIO AVE 3", "storey_range": "06 TO 10", "floor_area_sqm": "73", "flat_model": "New Generation", "lease_commence_date": "1978", "resale_price": "368000"}, {"_id": 41, "month": "2012-03", "town": "ANG MO KIO", "flat_type": "3 ROOM", "block": "570", "street_name": "ANG MO KIO AVE 3", "storey_range": "11 TO 15", "floor_area_sqm": "67", "flat_model": "New Generation", "lease_commence_date": "1979", "resale_price": "368000"}, {"_id": 42, "month": "2012-03", "town": "ANG MO KIO", "flat_type": "3 ROOM", "block": "127", "street_name": "ANG MO KIO AVE 3", "storey_range": "01 TO 05", "floor_area_sqm": "67", "flat_model": "New Generation", "lease_commence_date": "1978", "resale_price": "368000"}, {"_id": 43, "month": "2012-03", "town": "ANG MO KIO", "flat_type": "3 ROOM", "block": "159", "street_name": "ANG MO KIO AVE 4", "storey_range": "01 TO 05", "floor_area_sqm": "82", "flat_model": "New Generation", "lease_commence_date": "1980", "resale_price": "368000"}, {"_id": 44, "month": "2012-03", "town": "ANG MO KIO", "flat_type": "3 ROOM", "block": "121", "street_name": "ANG MO KIO AVE 3", "storey_range": "11 TO 15", "floor_area_sqm": "67", "flat_model": "New Generation", "lease_commence_date": "1978", "resale_price": "370000"}, {"_id": 45, "month": "2012-03", "town": "ANG MO KIO", "flat_type": "3 ROOM", "block": "173", "street_name": "ANG MO KIO AVE 4", "storey_range": "01 TO 05", "floor_area_sqm": "83", "flat_model": "New Generation", "lease_commence_date": "1982", "resale_price": "372000"}, {"_id": 46, "month": "2012-03", "town": "ANG MO KIO", "flat_type": "3 ROOM", "block": "418", "street_name": "ANG MO KIO AVE 10", "storey_range": "06 TO 10", "floor_area_sqm": "74", "flat_model": "New Generation", "lease_commence_date": "1979", "resale_price": "373000"}, {"_id": 47, "month": "2012-03", "town": "ANG MO KIO", "flat_type": "3 ROOM", "block": "585", "street_name": "ANG MO KIO AVE 3", "storey_range": "11 TO 15", "floor_area_sqm": "67", "flat_model": "New Generation", "lease_commence_date": "1979", "resale_price": "377000"}, {"_id": 48, "month": "2012-03", "town": "ANG MO KIO", "flat_type": "3 ROOM", "block": "120", "street_name": "ANG MO KIO AVE 3", "storey_range": "06 TO 10", "floor_area_sqm": "67", "flat_model": "New Generation", "lease_commence_date": "1978", "resale_price": "379000"}, {"_id": 49, "month": "2012-03", "town": "ANG MO KIO", "flat_type": "3 ROOM", "block": "421", "street_name": "ANG MO KIO AVE 10", "storey_range": "11 TO 15", "floor_area_sqm": "74", "flat_model": "New Generation", "lease_commence_date": "1979", "resale_price": "380000"}, {"_id": 50, "month": "2012-03", "town": "ANG MO KIO", "flat_type": "3 ROOM", "block": "419", "street_name": "ANG MO KIO AVE 10", "storey_range": "11 TO 15", "floor_area_sqm": "74", "flat_model": "New Generation", "lease_commence_date": "1979", "resale_price": "380000"}, {"_id": 51, "month": "2012-03", "town": "ANG MO KIO", "flat_type": "3 ROOM", "block": "173", "street_name": "ANG MO KIO AVE 4", "storey_range": "01 TO 05", "floor_area_sqm": "83", "flat_model": "New Generation", "lease_commence_date": "1982", "resale_price": "380000"}, {"_id": 52, "month": "2012-03", "town": "ANG MO KIO", "flat_type": "3 ROOM", "block": "178", "street_name": "ANG MO KIO AVE 4", "storey_range": "01 TO 05", "floor_area_sqm": "82", "flat_model": "New Generation", "lease_commence_date": "1981", "resale_price": "380000"}, {"_id": 53, "month": "2012-03", "town": "ANG MO KIO", "flat_type": "3 ROOM", "block": "417", "street_name": "ANG MO KIO AVE 10", "storey_range": "11 TO 15", "floor_area_sqm": "74", "flat_model": "New Generation", "lease_commence_date": "1979", "resale_price": "385000"}, {"_id": 54, "month": "2012-03", "town": "ANG MO KIO", "flat_type": "3 ROOM", "block": "509", "street_name": "ANG MO KIO AVE 8", "storey_range": "01 TO 05", "floor_area_sqm": "81", "flat_model": "New Generation", "lease_commence_date": "1980", "resale_price": "385000"}, {"_id": 55, "month": "2012-03", "town": "ANG MO KIO", "flat_type": "3 ROOM", "block": "128", "street_name": "ANG MO KIO AVE 3", "storey_range": "11 TO 15", "floor_area_sqm": "67", "flat_model": "New Generation", "lease_commence_date": "1978", "resale_price": "390000"}, {"_id": 56, "month": "2012-03", "town": "ANG MO KIO", "flat_type": "3 ROOM", "block": "328", "street_name": "ANG MO KIO AVE 3", "storey_range": "01 TO 05", "floor_area_sqm": "73", "flat_model": "New Generation", "lease_commence_date": "1978", "resale_price": "392000"}, {"_id": 57, "month": "2012-03", "town": "ANG MO KIO", "flat_type": "3 ROOM", "block": "463", "street_name": "ANG MO KIO AVE 10", "storey_range": "01 TO 05", "floor_area_sqm": "82", "flat_model": "New Generation", "lease_commence_date": "1980", "resale_price": "398000"}, {"_id": 58, "month": "2012-03", "town": "ANG MO KIO", "flat_type": "3 ROOM", "block": "561", "street_name": "ANG MO KIO AVE 10", "storey_range": "01 TO 05", "floor_area_sqm": "82", "flat_model": "New Generation", "lease_commence_date": "1980", "resale_price": "398000"}, {"_id": 59, "month": "2012-03", "town": "ANG MO KIO", "flat_type": "3 ROOM", "block": "623", "street_name": "ANG MO KIO AVE 9", "storey_range": "06 TO 10", "floor_area_sqm": "82", "flat_model": "New Generation", "lease_commence_date": "1980", "resale_price": "399000"}, {"_id": 60, "month": "2012-03", "town": "ANG MO KIO", "flat_type": "3 ROOM", "block": "575", "street_name": "ANG MO KIO AVE 10", "storey_range": "01 TO 05", "floor_area_sqm": "81", "flat_model": "New Generation", "lease_commence_date": "1980", "resale_price": "400000"}, {"_id": 61, "month": "2012-03", "town": "ANG MO KIO", "flat_type": "3 ROOM", "block": "587", "street_name": "ANG MO KIO AVE 3", "storey_range": "01 TO 05", "floor_area_sqm": "82", "flat_model": "New Generation", "lease_commence_date": "1979", "resale_price": "400000"}, {"_id": 62, "month": "2012-03", "town": "ANG MO KIO", "flat_type": "3 ROOM", "block": "114", "street_name": "ANG MO KIO AVE 4", "storey_range": "01 TO 05", "floor_area_sqm": "88", "flat_model": "New Generation", "lease_commence_date": "1978", "resale_price": "400000"}, {"_id": 63, "month": "2012-03", "town": "ANG MO KIO", "flat_type": "4 ROOM", "block": "218", "street_name": "ANG MO KIO AVE 1", "storey_range": "01 TO 05", "floor_area_sqm": "82", "flat_model": "New Generation", "lease_commence_date": "1976", "resale_price": "400000"}, {"_id": 64, "month": "2012-03", "town": "ANG MO KIO", "flat_type": "3 ROOM", "block": "320", "street_name": "ANG MO KIO AVE 1", "storey_range": "06 TO 10", "floor_area_sqm": "73", "flat_model": "New Generation", "lease_commence_date": "1977", "resale_price": "403000"}, {"_id": 65, "month": "2012-03", "town": "ANG MO KIO", "flat_type": "3 ROOM", "block": "348", "street_name": "ANG MO KIO AVE 3", "storey_range": "06 TO 10", "floor_area_sqm": "73", "flat_model": "New Generation", "lease_commence_date": "1978", "resale_price": "411000"}, {"_id": 66, "month": "2012-03", "town": "ANG MO KIO", "flat_type": "4 ROOM", "block": "601", "street_name": "ANG MO KIO AVE 5", "storey_range": "01 TO 05", "floor_area_sqm": "91", "flat_model": "New Generation", "lease_commence_date": "1980", "resale_price": "411000"}, {"_id": 67, "month": "2012-03", "town": "ANG MO KIO", "flat_type": "3 ROOM", "block": "348", "street_name": "ANG MO KIO AVE 3", "storey_range": "11 TO 15", "floor_area_sqm": "73", "flat_model": "New Generation", "lease_commence_date": "1978", "resale_price": "414000"}, {"_id": 68, "month": "2012-03", "town": "ANG MO KIO", "flat_type": "3 ROOM", "block": "313", "street_name": "ANG MO KIO AVE 3", "storey_range": "06 TO 10", "floor_area_sqm": "73", "flat_model": "New Generation", "lease_commence_date": "1978", "resale_price": "418000"}, {"_id": 69, "month": "2012-03", "town": "ANG MO KIO", "flat_type": "3 ROOM", "block": "523", "street_name": "ANG MO KIO AVE 5", "storey_range": "06 TO 10", "floor_area_sqm": "82", "flat_model": "New Generation", "lease_commence_date": "1980", "resale_price": "426888"}, {"_id": 70, "month": "2012-03", "town": "ANG MO KIO", "flat_type": "4 ROOM", "block": "108", "street_name": "ANG MO KIO AVE 4", "storey_range": "06 TO 10", "floor_area_sqm": "92", "flat_model": "New Generation", "lease_commence_date": "1978", "resale_price": "427000"}, {"_id": 71, "month": "2012-03", "town": "ANG MO KIO", "flat_type": "3 ROOM", "block": "466", "street_name": "ANG MO KIO AVE 10", "storey_range": "11 TO 15", "floor_area_sqm": "82", "flat_model": "New Generation", "lease_commence_date": "1984", "resale_price": "428000"}, {"_id": 72, "month": "2012-03", "town": "ANG MO KIO", "flat_type": "4 ROOM", "block": "105", "street_name": "ANG MO KIO AVE 4", "storey_range": "06 TO 10", "floor_area_sqm": "92", "flat_model": "New Generation", "lease_commence_date": "1978", "resale_price": "430000"}, {"_id": 73, "month": "2012-03", "town": "ANG MO KIO", "flat_type": "4 ROOM", "block": "438", "street_name": "ANG MO KIO AVE 10", "storey_range": "06 TO 10", "floor_area_sqm": "92", "flat_model": "New Generation", "lease_commence_date": "1979", "resale_price": "433000"}, {"_id": 74, "month": "2012-03", "town": "ANG MO KIO", "flat_type": "4 ROOM", "block": "543", "street_name": "ANG MO KIO AVE 10", "storey_range": "06 TO 10", "floor_area_sqm": "92", "flat_model": "New Generation", "lease_commence_date": "1981", "resale_price": "434000"}, {"_id": 75, "month": "2012-03", "town": "ANG MO KIO", "flat_type": "3 ROOM", "block": "416", "street_name": "ANG MO KIO AVE 10", "storey_range": "06 TO 10", "floor_area_sqm": "89", "flat_model": "New Generation", "lease_commence_date": "1979", "resale_price": "434800"}, {"_id": 76, "month": "2012-03", "town": "ANG MO KIO", "flat_type": "3 ROOM", "block": "419", "street_name": "ANG MO KIO AVE 10", "storey_range": "06 TO 10", "floor_area_sqm": "89", "flat_model": "New Generation", "lease_commence_date": "1979", "resale_price": "435000"}, {"_id": 77, "month": "2012-03", "town": "ANG MO KIO", "flat_type": "4 ROOM", "block": "442", "street_name": "ANG MO KIO AVE 10", "storey_range": "01 TO 05", "floor_area_sqm": "92", "flat_model": "New Generation", "lease_commence_date": "1979", "resale_price": "440000"}, {"_id": 78, "month": "2012-03", "town": "ANG MO KIO", "flat_type": "4 ROOM", "block": "573", "street_name": "ANG MO KIO AVE 3", "storey_range": "01 TO 05", "floor_area_sqm": "92", "flat_model": "New Generation", "lease_commence_date": "1979", "resale_price": "443000"}, {"_id": 79, "month": "2012-03", "town": "ANG MO KIO", "flat_type": "4 ROOM", "block": "542", "street_name": "ANG MO KIO AVE 10", "storey_range": "11 TO 15", "floor_area_sqm": "93", "flat_model": "New Generation", "lease_commence_date": "1981", "resale_price": "445000"}, {"_id": 80, "month": "2012-03", "town": "ANG MO KIO", "flat_type": "4 ROOM", "block": "544", "street_name": "ANG MO KIO AVE 10", "storey_range": "01 TO 05", "floor_area_sqm": "92", "flat_model": "New Generation", "lease_commence_date": "1981", "resale_price": "448000"}, {"_id": 81, "month": "2012-03", "town": "ANG MO KIO", "flat_type": "4 ROOM", "block": "335", "street_name": "ANG MO KIO AVE 1", "storey_range": "01 TO 05", "floor_area_sqm": "91", "flat_model": "New Generation", "lease_commence_date": "1982", "resale_price": "455000"}, {"_id": 82, "month": "2012-03", "town": "ANG MO KIO", "flat_type": "4 ROOM", "block": "475", "street_name": "ANG MO KIO AVE 10", "storey_range": "11 TO 15", "floor_area_sqm": "91", "flat_model": "New Generation", "lease_commence_date": "1979", "resale_price": "455000"}, {"_id": 83, "month": "2012-03", "town": "ANG MO KIO", "flat_type": "4 ROOM", "block": "572", "street_name": "ANG MO KIO AVE 3", "storey_range": "01 TO 05", "floor_area_sqm": "92", "flat_model": "New Generation", "lease_commence_date": "1979", "resale_price": "457000"}, {"_id": 84, "month": "2012-03", "town": "ANG MO KIO", "flat_type": "3 ROOM", "block": "313", "street_name": "ANG MO KIO AVE 3", "storey_range": "06 TO 10", "floor_area_sqm": "88", "flat_model": "New Generation", "lease_commence_date": "1978", "resale_price": "460000"}, {"_id": 85, "month": "2012-03", "town": "ANG MO KIO", "flat_type": "4 ROOM", "block": "208", "street_name": "ANG MO KIO AVE 1", "storey_range": "06 TO 10", "floor_area_sqm": "88", "flat_model": "New Generation", "lease_commence_date": "1976", "resale_price": "460000"}, {"_id": 86, "month": "2012-03", "town": "ANG MO KIO", "flat_type": "4 ROOM", "block": "231", "street_name": "ANG MO KIO AVE 3", "storey_range": "06 TO 10", "floor_area_sqm": "92", "flat_model": "New Generation", "lease_commence_date": "1977", "resale_price": "460000"}, {"_id": 87, "month": "2012-03", "town": "ANG MO KIO", "flat_type": "4 ROOM", "block": "435", "street_name": "ANG MO KIO AVE 10", "storey_range": "06 TO 10", "floor_area_sqm": "92", "flat_model": "New Generation", "lease_commence_date": "1979", "resale_price": "478000"}, {"_id": 88, "month": "2012-03", "town": "ANG MO KIO", "flat_type": "4 ROOM", "block": "128", "street_name": "ANG MO KIO AVE 3", "storey_range": "11 TO 15", "floor_area_sqm": "92", "flat_model": "New Generation", "lease_commence_date": "1978", "resale_price": "478000"}, {"_id": 89, "month": "2012-03", "town": "ANG MO KIO", "flat_type": "4 ROOM", "block": "467", "street_name": "ANG MO KIO AVE 10", "storey_range": "11 TO 15", "floor_area_sqm": "92", "flat_model": "New Generation", "lease_commence_date": "1979", "resale_price": "480000"}, {"_id": 90, "month": "2012-03", "town": "ANG MO KIO", "flat_type": "4 ROOM", "block": "634", "street_name": "ANG MO KIO AVE 6", "storey_range": "01 TO 05", "floor_area_sqm": "92", "flat_model": "New Generation", "lease_commence_date": "1980", "resale_price": "480000"}, {"_id": 91, "month": "2012-03", "town": "ANG MO KIO", "flat_type": "4 ROOM", "block": "504", "street_name": "ANG MO KIO AVE 8", "storey_range": "01 TO 05", "floor_area_sqm": "93", "flat_model": "New Generation", "lease_commence_date": "1980", "resale_price": "480000"}, {"_id": 92, "month": "2012-03", "town": "ANG MO KIO", "flat_type": "4 ROOM", "block": "414", "street_name": "ANG MO KIO AVE 10", "storey_range": "01 TO 05", "floor_area_sqm": "92", "flat_model": "New Generation", "lease_commence_date": "1979", "resale_price": "481000"}, {"_id": 93, "month": "2012-03", "town": "ANG MO KIO", "flat_type": "4 ROOM", "block": "434", "street_name": "ANG MO KIO AVE 10", "storey_range": "11 TO 15", "floor_area_sqm": "92", "flat_model": "New Generation", "lease_commence_date": "1979", "resale_price": "493000"}, {"_id": 94, "month": "2012-03", "town": "ANG MO KIO", "flat_type": "4 ROOM", "block": "346", "street_name": "ANG MO KIO AVE 3", "storey_range": "06 TO 10", "floor_area_sqm": "98", "flat_model": "New Generation", "lease_commence_date": "1978", "resale_price": "505000"}, {"_id": 95, "month": "2012-03", "town": "ANG MO KIO", "flat_type": "4 ROOM", "block": "638", "street_name": "ANG MO KIO AVE 6", "storey_range": "06 TO 10", "floor_area_sqm": "91", "flat_model": "New Generation", "lease_commence_date": "1980", "resale_price": "508000"}, {"_id": 96, "month": "2012-03", "town": "ANG MO KIO", "flat_type": "5 ROOM", "block": "101", "street_name": "ANG MO KIO AVE 3", "storey_range": "06 TO 10", "floor_area_sqm": "117", "flat_model": "Standard", "lease_commence_date": "1978", "resale_price": "515000"}, {"_id": 97, "month": "2012-03", "town": "ANG MO KIO", "flat_type": "4 ROOM", "block": "354", "street_name": "ANG MO KIO ST 32", "storey_range": "01 TO 05", "floor_area_sqm": "95", "flat_model": "Model A", "lease_commence_date": "2001", "resale_price": "518000"}, {"_id": 98, "month": "2012-03", "town": "ANG MO KIO", "flat_type": "4 ROOM", "block": "348", "street_name": "ANG MO KIO AVE 3", "storey_range": "06 TO 10", "floor_area_sqm": "98", "flat_model": "New Generation", "lease_commence_date": "1978", "resale_price": "533000"}, {"_id": 99, "month": "2012-03", "town": "ANG MO KIO", "flat_type": "5 ROOM", "block": "648", "street_name": "ANG MO KIO AVE 5", "storey_range": "01 TO 05", "floor_area_sqm": "121", "flat_model": "Improved", "lease_commence_date": "1980", "resale_price": "538000"}, {"_id": 100, "month": "2012-03", "town": "ANG MO KIO", "flat_type": "4 ROOM", "block": "351", "street_name": "ANG MO KIO ST 32", "storey_range": "06 TO 10", "floor_area_sqm": "95", "flat_model": "Model A", "lease_commence_date": "2001", "resale_price": "538000"}], "_links": {"start": "/api/action/datastore_search?resource_id=d_2d5ff9ea31397b66239f245f57751537", "next": "/api/action/datastore_search?resource_id=d_2d5ff9ea31397b66239f245f57751537&offset=100"}, "total": 52203}}