{"help": "https://data.gov.sg/api/3/action/help_show?name=datastore_search", "success": true, "result": {"resource_id": "d_ea9ed51da2787afaf8e51f827c304208", "fields": [{"type": "text", "id": "month"}, {"type": "text", "id": "town"}, {"type": "text", "id": "flat_type"}, {"type": "text", "id": "block"}, {"type": "text", "id": "street_name"}, {"type": "text", "id": "storey_range"}, {"type": "text", "id": "floor_area_sqm"}, {"type": "text", "id": "flat_model"}, {"type": "text", "id": "lease_commence_date"}, {"type": "text", "id": "remaining_lease"}, {"type": "text", "id": "resale_price"}, {"type": "int4", "id": "_id"}], "records": [{"_id": 1, "month": "2015-01", "town": "ANG MO KIO", "flat_type": "3 ROOM", "block": "174", "street_name": "ANG MO KIO AVE 4", "storey_range": "07 TO 09", "floor_area_sqm": "60", "flat_model": "Improved", "lease_commence_date": "1986", "remaining_lease": "70", "resale_price": "255000"}, {"_id": 2, "month": "2015-01", "town": "ANG MO KIO", "flat_type": "3 ROOM", "block": "541", "street_name": "ANG MO KIO AVE 10", "storey_range": "01 TO 03", "floor_area_sqm": "68", "flat_model": "New Generation", "lease_commence_date": "1981", "remaining_lease": "65", "resale_price": "275000"}, {"_id": 3, "month": "2015-01", "town": "ANG MO KIO", "flat_type": "3 ROOM", "block": "163", "street_name": "ANG MO KIO AVE 4", "storey_range": "01 TO 03", "floor_area_sqm": "69", "flat_model": "New Generation", "lease_commence_date": "1980", "remaining_lease": "64", "resale_price": "285000"}, {"_id": 4, "month": "2015-01", "town": "ANG MO KIO", "flat_type": "3 ROOM", "block": "446", "street_name": "ANG MO KIO AVE 10", "storey_range": "01 TO 03", "floor_area_sqm": "68", "flat_model": "New Generation", "lease_commence_date": "1979", "remaining_lease": "63", "resale_price": "290000"}, {"_id": 5, "month": "2015-01", "town": "ANG MO KIO", "flat_type": "3 ROOM", "block": "557", "street_name": "ANG MO KIO AVE 10", "storey_range": "07 TO 09", "floor_area_sqm": "68", "flat_model": "New Generation", "lease_commence_date": "1980", "remaining_lease": "64", "resale_price": "290000"}, {"_id": 6, "month": "2015-01", "town": "ANG MO KIO", "flat_type": "3 ROOM", "block": "603", "street_name": "ANG MO KIO AVE 5", "storey_range": "07 TO 09", "floor_area_sqm": "67", "flat_model": "New Generation", "lease_commence_date": "1980", "remaining_lease": "64", "resale_price": "290000"}, {"_id": 7, "month": "2015-01", "town": "ANG MO KIO", "flat_type": "3 ROOM", "block": "709", "street_name": "ANG MO KIO AVE 8", "storey_range": "01 TO 03", "floor_area_sqm": "68", "flat_model": "New Generation", "lease_commence_date": "1980", "remaining_lease": "64", "resale_price": "290000"}, {"_id": 8, "month": "2015-01", "town": "ANG MO KIO", "flat_type": "3 ROOM", "block": "333", "street_name": "ANG MO KIO AVE 1", "storey_range": "01 TO 03", "floor_area_sqm": "68", "flat_model": "New Generation", "lease_commence_date": "1981", "remaining_lease": "65", "resale_price": "293000"}, {"_id": 9, "month": "2015-01", "town": "ANG MO KIO", "flat_type": "3 ROOM", "block": "109", "street_name": "ANG MO KIO AVE 4", "storey_range": "01 TO 03", "floor_area_sqm": "67", "flat_model": "New Generation", "lease_commence_date": "1978", "remaining_lease": "62", "resale_price": "300000"}, {"_id": 10, "month": "2015-01", "town": "ANG MO KIO", "flat_type": "3 ROOM", "block": "564", "street_name": "ANG MO KIO AVE 3", "storey_range": "13 TO 15", "floor_area_sqm": "68", "flat_model": "New Generation", "lease_commence_date": "1985", "remaining_lease": "69", "resale_price": "307500"}, {"_id": 11, "month": "2015-01", "town": "ANG MO KIO", "flat_type": "3 ROOM", "block": "218", "street_name": "ANG MO KIO AVE 1", "storey_range": "07 TO 09", "floor_area_sqm": "67", "flat_model": "New Generation", "lease_commence_date": "1976", "remaining_lease": "60", "resale_price": "308000"}, {"_id": 12, "month": "2015-01", "town": "ANG MO KIO", "flat_type": "3 ROOM", "block": "556", "street_name": "ANG MO KIO AVE 10", "storey_range": "10 TO 12", "floor_area_sqm": "68", "flat_model": "New Generation", "lease_commence_date": "1980", "remaining_lease": "64", "resale_price": "312000"}, {"_id": 13, "month": "2015-01", "town": "ANG MO KIO", "flat_type": "3 ROOM", "block": "156", "street_name": "ANG MO KIO AVE 4", "storey_range": "10 TO 12", "floor_area_sqm": "68", "flat_model": "New Generation", "lease_commence_date": "1981", "remaining_lease": "65", "resale_price": "312000"}, {"_id": 14, "month": "2015-01", "town": "ANG MO KIO", "flat_type": "3 ROOM", "block": "471", "street_name": "ANG MO KIO AVE 10", "storey_range": "07 TO 09", "floor_area_sqm": "67", "flat_model": "New Generation", "lease_commence_date": "1979", "remaining_lease": "63", "resale_price": "319000"}, {"_id": 15, "month": "2015-01", "town": "ANG MO KIO", "flat_type": "3 ROOM", "block": "434", "street_name": "ANG MO KIO AVE 10", "storey_range": "07 TO 09", "floor_area_sqm": "67", "flat_model": "New Generation", "lease_commence_date": "1979", "remaining_lease": "63", "resale_price": "320000"}, {"_id": 16, "month": "2015-01", "town": "ANG MO KIO", "flat_type": "3 ROOM", "block": "560", "street_name": "ANG MO KIO AVE 10", "storey_range": "07 TO 09", "floor_area_sqm": "67", "flat_model": "New Generation", "lease_commence_date": "1980", "remaining_lease": "64", "resale_price": "320000"}, {"_id": 17, "month": "2015-01", "town": "ANG MO KIO", "flat_type": "3 ROOM", "block": "332", "street_name": "ANG MO KIO AVE 1", "storey_range": "10 TO 12", "floor_area_sqm": "68", "flat_model": "New Generation", "lease_commence_date": "1981", "remaining_lease": "65", "resale_price": "325000"}, {"_id": 18, "month": "2015-01", "town": "ANG MO KIO", "flat_type": "3 ROOM", "block": "421", "street_name": "ANG MO KIO AVE 10", "storey_range": "01 TO 03", "floor_area_sqm": "74", "flat_model": "New Generation", "lease_commence_date": "1979", "remaining_lease": "63", "resale_price": "325000"}, {"_id": 19, "month": "2015-01", "town": "ANG MO KIO", "flat_type": "3 ROOM", "block": "506", "street_name": "ANG MO KIO AVE 8", "storey_range": "07 TO 09", "floor_area_sqm": "68", "flat_model": "New Generation", "lease_commence_date": "1980", "remaining_lease": "64", "resale_price": "325000"}, {"_id": 20, "month": "2015-01", "town": "ANG MO KIO", "flat_type": "3 ROOM", "block": "631", "street_name": "ANG MO KIO AVE 4", "storey_range": "07 TO 09", "floor_area_sqm": "67", "flat_model": "New Generation", "lease_commence_date": "1985", "remaining_lease": "69", "resale_price": "330000"}, {"_id": 21, "month": "2015-01", "town": "ANG MO KIO", "flat_type": "3 ROOM", "block": "153", "street_name": "ANG MO KIO AVE 5", "storey_range": "10 TO 12", "floor_area_sqm": "68", "flat_model": "New Generation", "lease_commence_date": "1981", "remaining_lease": "65", "resale_price": "330000"}, {"_id": 22, "month": "2015-01", "town": "ANG MO KIO", "flat_type": "3 ROOM", "block": "442", "street_name": "ANG MO KIO AVE 10", "storey_range": "10 TO 12", "floor_area_sqm": "67", "flat_model": "New Generation", "lease_commence_date": "1979", "remaining_lease": "63", "resale_price": "335000"}, {"_id": 23, "month": "2015-01", "town": "ANG MO KIO", "flat_type": "3 ROOM", "block": "558", "street_name": "ANG MO KIO AVE 10", "storey_range": "10 TO 12", "floor_area_sqm": "67", "flat_model": "New Generation", "lease_commence_date": "1980", "remaining_lease": "64", "resale_price": "338000"}, {"_id": 24, "month": "2015-01", "town": "ANG MO KIO", "flat_type": "3 ROOM", "block": "212", "street_name": "ANG MO KIO AVE 3", "storey_range": "10 TO 12", "floor_area_sqm": "67", "flat_model": "New Generation", "lease_commence_date": "1977", "remaining_lease": "61", "resale_price": "340000"}, {"_id": 25, "month": "2015-01", "town": "ANG MO KIO", "flat_type": "3 ROOM", "block": "152", "street_name": "ANG MO KIO AVE 5", "storey_range": "04 TO 06", "floor_area_sqm": "82", "flat_model": "New Generation", "lease_commence_date": "1981", "remaining_lease": "65", "resale_price": "340000"}, {"_id": 26, "month": "2015-01", "town": "ANG MO KIO", "flat_type": "3 ROOM", "block": "331", "street_name": "ANG MO KIO AVE 1", "storey_range": "04 TO 06", "floor_area_sqm": "68", "flat_model": "New Generation", "lease_commence_date": "1981", "remaining_lease": "65", "resale_price": "341000"}, {"_id": 27, "month": "2015-01", "town": "ANG MO KIO", "flat_type": "3 ROOM", "block": "121", "street_name": "ANG MO KIO AVE 3", "storey_range": "07 TO 09", "floor_area_sqm": "67", "flat_model": "New Generation", "lease_commence_date": "1978", "remaining_lease": "62", "resale_price": "345000"}, {"_id": 28, "month": "2015-01", "town": "ANG MO KIO", "flat_type": "3 ROOM", "block": "130", "street_name": "ANG MO KIO AVE 3", "storey_range": "07 TO 09", "floor_area_sqm": "73", "flat_model": "New Generation", "lease_commence_date": "1979", "remaining_lease": "63", "resale_price": "350000"}, {"_id": 29, "month": "2015-01", "town": "ANG MO KIO", "flat_type": "3 ROOM", "block": "564", "street_name": "ANG MO KIO AVE 3", "storey_range": "07 TO 09", "floor_area_sqm": "82", "flat_model": "New Generation", "lease_commence_date": "1985", "remaining_lease": "69", "resale_price": "355000"}, {"_id": 30, "month": "2015-01", "town": "ANG MO KIO", "flat_type": "3 ROOM", "block": "646", "street_name": "ANG MO KIO AVE 6", "storey_range": "07 TO 09", "floor_area_sqm": "75", "flat_model": "New Generation", "lease_commence_date": "1980", "remaining_lease": "64", "resale_price": "355000"}, {"_id": 31, "month": "2015-01", "town": "ANG MO KIO", "flat_type": "3 ROOM", "block": "424", "street_name": "ANG MO KIO AVE 3", "storey_range": "04 TO 06", "floor_area_sqm": "73", "flat_model": "New Generation", "lease_commence_date": "1979", "remaining_lease": "63", "resale_price": "370000"}, {"_id": 32, "month": "2015-01", "town": "ANG MO KIO", "flat_type": "3 ROOM", "block": "584", "street_name": "ANG MO KIO AVE 3", "storey_range": "07 TO 09", "floor_area_sqm": "82", "flat_model": "New Generation", "lease_commence_date": "1979", "remaining_lease": "63", "resale_price": "410000"}, {"_id": 33, "month": "2015-01", "town": "ANG MO KIO", "flat_type": "4 ROOM", "block": "412", "street_name": "ANG MO KIO AVE 10", "storey_range": "01 TO 03", "floor_area_sqm": "92", "flat_model": "New Generation", "lease_commence_date": "1979", "remaining_lease": "63", "resale_price": "385000"}, {"_id": 34, "month": "2015-01", "town": "ANG MO KIO", "flat_type": "4 ROOM", "block": "612", "street_name": "ANG MO KIO AVE 4", "storey_range": "04 TO 06", "floor_area_sqm": "91", "flat_model": "New Generation", "lease_commence_date": "1980", "remaining_lease": "64", "resale_price": "410000"}, {"_id": 35, "month": "2015-01", "town": "ANG MO KIO", "flat_type": "4 ROOM", "block": "562", "street_name": "ANG MO KIO AVE 3", "storey_range": "10 TO 12", "floor_area_sqm": "92", "flat_model": "New Generation", "lease_commence_date": "1980", "remaining_lease": "64", "resale_price": "416888"}, {"_id": 36, "month": "2015-01", "town": "ANG MO KIO", "flat_type": "4 ROOM", "block": "223", "street_name": "ANG MO KIO AVE 1", "storey_range": "04 TO 06", "floor_area_sqm": "92", "flat_model": "New Generation", "lease_commence_date": "1978", "remaining_lease": "62", "resale_price": "423000"}, {"_id": 37, "month": "2015-01", "town": "ANG MO KIO", "flat_type": "4 ROOM", "block": "150", "street_name": "ANG MO KIO AVE 5", "storey_range": "10 TO 12", "floor_area_sqm": "93", "flat_model": "New Generation", "lease_commence_date": "1981", "remaining_lease": "65", "resale_price": "438000"}, {"_id": 38, "month": "2015-01", "town": "ANG MO KIO", "flat_type": "4 ROOM", "block": "468", "street_name": "ANG MO KIO AVE 10", "storey_range": "04 TO 06", "floor_area_sqm": "92", "flat_model": "New Generation", "lease_commence_date": "1979", "remaining_lease": "63", "resale_price": "438000"}, {"_id": 39, "month": "2015-01", "town": "ANG MO KIO", "flat_type": "4 ROOM", "block": "177", "street_name": "ANG MO KIO AVE 4", "storey_range": "01 TO 03", "floor_area_sqm": "91", "flat_model": "New Generation", "lease_commence_date": "1981", "remaining_lease": "65", "resale_price": "450000"}, {"_id": 40, "month": "2015-01", "town": "ANG MO KIO", "flat_type": "4 ROOM", "block": "603", "street_name": "ANG MO KIO AVE 5", "storey_range": "07 TO 09", "floor_area_sqm": "91", "flat_model": "New Generation", "lease_commence_date": "1980", "remaining_lease": "64", "resale_price": "450000"}, {"_id": 41, "month": "2015-01", "town": "ANG MO KIO", "flat_type": "4 ROOM", "block": "415", "street_name": "ANG MO KIO AVE 10", "storey_range": "10 TO 12", "floor_area_sqm": "92", "flat_model": "New Generation", "lease_commence_date": "1979", "remaining_lease": "63", "resale_price": "465000"}, {"_id": 42, "month": "2015-01", "town": "ANG MO KIO", "flat_type": "4 ROOM", "block": "254", "street_name": "ANG MO KIO AVE 4", "storey_range": "07 TO 09", "floor_area_sqm": "97", "flat_model": "New Generation", "lease_commence_date": "1977", "remaining_lease": "61", "resale_price": "465000"}, {"_id": 43, "month": "2015-01", "town": "ANG MO KIO", "flat_type": "4 ROOM", "block": "207", "street_name": "ANG MO KIO AVE 1", "storey_range": "01 TO 03", "floor_area_sqm": "97", "flat_model": "New Generation", "lease_commence_date": "1976", "remaining_lease": "60", "resale_price": "475000"}, {"_id": 44, "month": "2015-01", "town": "ANG MO KIO", "flat_type": "4 ROOM", "block": "432", "street_name": "ANG MO KIO AVE 10", "storey_range": "07 TO 09", "floor_area_sqm": "92", "flat_model": "New Generation", "lease_commence_date": "1979", "remaining_lease": "63", "resale_price": "475000"}, {"_id": 45, "month": "2015-01", "town": "ANG MO KIO", "flat_type": "4 ROOM", "block": "117", "street_name": "ANG MO KIO AVE 4", "storey_range": "10 TO 12", "floor_area_sqm": "98", "flat_model": "New Generation", "lease_commence_date": "1978", "remaining_lease": "62", "resale_price": "476000"}, {"_id": 46, "month": "2015-01", "town": "ANG MO KIO", "flat_type": "4 ROOM", "block": "415", "street_name": "ANG MO KIO AVE 10", "storey_range": "07 TO 09", "floor_area_sqm": "92", "flat_model": "New Generation", "lease_commence_date": "1979", "remaining_lease": "63", "resale_price": "480000"}, {"_id": 47, "month": "2015-01", "town": "ANG MO KIO", "flat_type": "4 ROOM", "block": "428", "street_name": "ANG MO KIO AVE 3", "storey_range": "07 TO 09", "floor_area_sqm": "92", "flat_model": "New Generation", "lease_commence_date": "1978", "remaining_lease": "62", "resale_price": "483000"}, {"_id": 48, "month": "2015-01", "town": "ANG MO KIO", "flat_type": "4 ROOM", "block": "573", "street_name": "ANG MO KIO AVE 3", "storey_range": "07 TO 09", "floor_area_sqm": "92", "flat_model": "New Generation", "lease_commence_date": "1979", "remaining_lease": "63", "resale_price": "485000"}, {"_id": 49, "month": "2015-01", "town": "ANG MO KIO", "flat_type": "4 ROOM", "block": "418", "street_name": "ANG MO KIO AVE 10", "storey_range": "07 TO 09", "floor_area_sqm": "99", "flat_model": "New Generation", "lease_commence_date": "1979", "remaining_lease": "63", "resale_price": "486888"}, {"_id": 50, "month": "2015-01", "town": "ANG MO KIO", "flat_type": "4 ROOM", "block": "324", "street_name": "ANG MO KIO AVE 3", "storey_range": "07 TO 09", "floor_area_sqm": "98", "flat_model": "New Generation", "lease_commence_date": "1978", "remaining_lease": "62", "resale_price": "583000"}, {"_id": 51, "month": "2015-01", "town": "ANG MO KIO", "flat_type": "4 ROOM", "block": "596B", "street_name": "ANG MO KIO ST 52", "storey_range": "04 TO 06", "floor_area_sqm": "93", "flat_model": "Model A", "lease_commence_date": "2002", "remaining_lease": "86", "resale_price": "600888"}, {"_id": 52, "month": "2015-01", "town": "ANG MO KIO", "flat_type": "5 ROOM", "block": "234", "street_name": "ANG MO KIO AVE 3", "storey_range": "07 TO 09", "floor_area_sqm": "125", "flat_model": "Improved", "lease_commence_date": "1993", "remaining_lease": "77", "resale_price": "533000"}, {"_id": 53, "month": "2015-01", "town": "ANG MO KIO", "flat_type": "5 ROOM", "block": "648", "street_name": "ANG MO KIO AVE 5", "storey_range": "01 TO 03", "floor_area_sqm": "121", "flat_model": "Improved", "lease_commence_date": "1980", "remaining_lease": "64", "resale_price": "570000"}, {"_id": 54, "month": "2015-01", "town": "ANG MO KIO", "flat_type": "5 ROOM", "block": "253A", "street_name": "ANG MO KIO ST 21", "storey_range": "01 TO 03", "floor_area_sqm": "138", "flat_model": "Model A", "lease_commence_date": "1996", "remaining_lease": "80", "resale_price": "580000"}, {"_id": 55, "month": "2015-01", "town": "ANG MO KIO", "flat_type": "5 ROOM", "block": "439", "street_name": "ANG MO KIO AVE 10", "storey_range": "19 TO 21", "floor_area_sqm": "119", "flat_model": "Improved", "lease_commence_date": "1979", "remaining_lease": "63", "resale_price": "645000"}, {"_id": 56, "month": "2015-01", "town": "ANG MO KIO", "flat_type": "5 ROOM", "block": "306", "street_name": "ANG MO KIO AVE 1", "storey_range": "13 TO 15", "floor_area_sqm": "123", "flat_model": "Standard", "lease_commence_date": "1977", "remaining_lease": "61", "resale_price": "650000"}, {"_id": 57, "month": "2015-01", "town": "ANG MO KIO", "flat_type": "5 ROOM", "block": "729", "street_name": "ANG MO KIO AVE 6", "storey_range": "01 TO 03", "floor_area_sqm": "119", "flat_model": "Improved", "lease_commence_date": "1980", "remaining_lease": "64", "resale_price": "670000"}, {"_id": 58, "month": "2015-01", "town": "ANG MO KIO", "flat_type": "5 ROOM", "block": "315B", "street_name": "ANG MO KIO ST 31", "storey_range": "13 TO 15", "floor_area_sqm": "110", "flat_model": "Improved", "lease_commence_date": "2006", "remaining_lease": "90", "resale_price": "755000"}, {"_id": 59, "month": "2015-01", "town": "ANG MO KIO", "flat_type": "5 ROOM", "block": "700C", "street_name": "ANG MO KIO AVE 6", "storey_range": "19 TO 21", "floor_area_sqm": "111", "flat_model": "Improved", "lease_commence_date": "2003", "remaining_lease": "87", "resale_price": "820000"}, {"_id": 60, "month": "2015-01", "town": "BEDOK", "flat_type": "2 ROOM", "block": "620", "street_name": "BEDOK RESERVOIR RD", "storey_range": "07 TO 09", "floor_area_sqm": "45", "flat_model": "Improved", "lease_commence_date": "1986", "remaining_lease": "70", "resale_price": "246000"}, {"_id": 61, "month": "2015-01", "town": "BEDOK", "flat_type": "2 ROOM", "block": "38", "street_name": "BEDOK STH RD", "storey_range": "07 TO 09", "floor_area_sqm": "44", "flat_model": "Improved", "lease_commence_date": "1978", "remaining_lease": "62", "resale_price": "255000"}, {"_id": 62, "month": "2015-01", "town": "BEDOK", "flat_type": "3 ROOM", "block": "504", "street_name": "BEDOK NTH ST 3", "storey_range": "07 TO 09", "floor_area_sqm": "59", "flat_model": "Improved", "lease_commence_date": "1978", "remaining_lease": "62", "resale_price": "270000"}, {"_id": 63, "month": "2015-01", "town": "BEDOK", "flat_type": "3 ROOM", "block": "545", "street_name": "BEDOK NTH ST 3", "storey_range": "07 TO 09", "floor_area_sqm": "68", "flat_model": "New Generation", "lease_commence_date": "1980", "remaining_lease": "64", "resale_price": "280000"}, {"_id": 64, "month": "2015-01", "town": "BEDOK", "flat_type": "3 ROOM", "block": "546", "street_name": "BEDOK NTH ST 3", "storey_range": "01 TO 03", "floor_area_sqm": "68", "flat_model": "New Generation", "lease_commence_date": "1980", "remaining_lease": "64", "resale_price": "280000"}, {"_id": 65, "month": "2015-01", "town": "BEDOK", "flat_type": "3 ROOM", "block": "18", "street_name": "BEDOK STH RD", "storey_range": "04 TO 06", "floor_area_sqm": "65", "flat_model": "Improved", "lease_commence_date": "1976", "remaining_lease": "60", "resale_price": "282000"}, {"_id": 66, "month": "2015-01", "town": "BEDOK", "flat_type": "3 ROOM", "block": "550", "street_name": "BEDOK NTH AVE 1", "storey_range": "07 TO 09", "floor_area_sqm": "68", "flat_model": "New Generation", "lease_commence_date": "1980", "remaining_lease": "64", "resale_price": "285000"}, {"_id": 67, "month": "2015-01", "town": "BEDOK", "flat_type": "3 ROOM", "block": "502", "street_name": "BEDOK NTH ST 3", "storey_range": "07 TO 09", "floor_area_sqm": "59", "flat_model": "Improved", "lease_commence_date": "1978", "remaining_lease": "62", "resale_price": "285000"}, {"_id": 68, "month": "2015-01", "town": "BEDOK", "flat_type": "3 ROOM", "block": "509", "street_name": "BEDOK NTH ST 3", "storey_range": "04 TO 06", "floor_area_sqm": "67", "flat_model": "New Generation", "lease_commence_date": "1979", "remaining_lease": "63", "resale_price": "285000"}, {"_id": 69, "month": "2015-01", "town": "BEDOK", "flat_type": "3 ROOM", "block": "525", "street_name": "BEDOK NTH ST 3", "storey_range": "04 TO 06", "floor_area_sqm": "67", "flat_model": "New Generation", "lease_commence_date": "1979", "remaining_lease": "63", "resale_price": "285000"}, {"_id": 70, "month": "2015-01", "town": "BEDOK", "flat_type": "3 ROOM", "block": "534", "street_name": "BEDOK NTH ST 3", "storey_range": "07 TO 09", "floor_area_sqm": "60", "flat_model": "Improved", "lease_commence_date": "1986", "remaining_lease": "70", "resale_price": "285000"}, {"_id": 71, "month": "2015-01", "town": "BEDOK", "flat_type": "3 ROOM", "block": "542", "street_name": "BEDOK NTH ST 3", "storey_range": "10 TO 12", "floor_area_sqm": "67", "flat_model": "New Generation", "lease_commence_date": "1985", "remaining_lease": "69", "resale_price": "285000"}, {"_id": 72, "month": "2015-01", "town": "BEDOK", "flat_type": "3 ROOM", "block": "76", "street_name": "BEDOK NTH RD", "storey_range": "04 TO 06", "floor_area_sqm": "59", "flat_model": "Improved", "lease_commence_date": "1978", "remaining_lease": "62", "resale_price": "288000"}, {"_id": 73, "month": "2015-01", "town": "BEDOK", "flat_type": "3 ROOM", "block": "709", "street_name": "BEDOK RESERVOIR RD", "storey_range": "04 TO 06", "floor_area_sqm": "68", "flat_model": "New Generation", "lease_commence_date": "1981", "remaining_lease": "65", "resale_price": "288000"}, {"_id": 74, "month": "2015-01", "town": "BEDOK", "flat_type": "3 ROOM", "block": "620", "street_name": "BEDOK RESERVOIR RD", "storey_range": "04 TO 06", "floor_area_sqm": "68", "flat_model": "Improved", "lease_commence_date": "1986", "remaining_lease": "70", "resale_price": "290000"}, {"_id": 75, "month": "2015-01", "town": "BEDOK", "flat_type": "3 ROOM", "block": "703", "street_name": "BEDOK RESERVOIR RD", "storey_range": "01 TO 03", "floor_area_sqm": "68", "flat_model": "New Generation", "lease_commence_date": "1980", "remaining_lease": "64", "resale_price": "291000"}, {"_id": 76, "month": "2015-01", "town": "BEDOK", "flat_type": "3 ROOM", "block": "27", "street_name": "NEW UPP CHANGI RD", "storey_range": "01 TO 03", "floor_area_sqm": "65", "flat_model": "Improved", "lease_commence_date": "1982", "remaining_lease": "66", "resale_price": "292000"}, {"_id": 77, "month": "2015-01", "town": "BEDOK", "flat_type": "3 ROOM", "block": "42", "street_name": "CHAI CHEE ST", "storey_range": "04 TO 06", "floor_area_sqm": "67", "flat_model": "New Generation", "lease_commence_date": "1985", "remaining_lease": "69", "resale_price": "295000"}, {"_id": 78, "month": "2015-01", "town": "BEDOK", "flat_type": "3 ROOM", "block": "426", "street_name": "BEDOK NTH RD", "storey_range": "07 TO 09", "floor_area_sqm": "82", "flat_model": "New Generation", "lease_commence_date": "1979", "remaining_lease": "63", "resale_price": "300000"}, {"_id": 79, "month": "2015-01", "town": "BEDOK", "flat_type": "3 ROOM", "block": "530", "street_name": "BEDOK NTH ST 3", "storey_range": "01 TO 03", "floor_area_sqm": "68", "flat_model": "New Generation", "lease_commence_date": "1979", "remaining_lease": "63", "resale_price": "300000"}, {"_id": 80, "month": "2015-01", "town": "BEDOK", "flat_type": "3 ROOM", "block": "420", "street_name": "BEDOK NTH ST 1", "storey_range": "01 TO 03", "floor_area_sqm": "68", "flat_model": "New Generation", "lease_commence_date": "1979", "remaining_lease": "63", "resale_price": "305000"}, {"_id": 81, "month": "2015-01", "town": "BEDOK", "flat_type": "3 ROOM", "block": "105", "street_name": "BEDOK NTH AVE 4", "storey_range": "01 TO 03", "floor_area_sqm": "67", "flat_model": "New Generation", "lease_commence_date": "1977", "remaining_lease": "61", "resale_price": "308000"}, {"_id": 82, "month": "2015-01", "town": "BEDOK", "flat_type": "3 ROOM", "block": "519", "street_name": "BEDOK NTH AVE 1", "storey_range": "01 TO 03", "floor_area_sqm": "67", "flat_model": "New Generation", "lease_commence_date": "1979", "remaining_lease": "63", "resale_price": "310000"}, {"_id": 83, "month": "2015-01", "town": "BEDOK", "flat_type": "3 ROOM", "block": "548", "street_name": "BEDOK NTH AVE 1", "storey_range": "04 TO 06", "floor_area_sqm": "68", "flat_model": "New Generation", "lease_commence_date": "1980", "remaining_lease": "64", "resale_price": "310000"}, {"_id": 84, "month": "2015-01", "town": "BEDOK", "flat_type": "3 ROOM", "block": "537", "street_name": "BEDOK NTH ST 3", "storey_range": "04 TO 06", "floor_area_sqm": "68", "flat_model": "New Generation", "lease_commence_date": "1980", "remaining_lease": "64", "resale_price": "310000"}, {"_id": 85, "month": "2015-01", "town": "BEDOK", "flat_type": "3 ROOM", "block": "28", "street_name": "NEW UPP CHANGI RD", "storey_range": "01 TO 03", "floor_area_sqm": "65", "flat_model": "Improved", "lease_commence_date": "1977", "remaining_lease": "61", "resale_price": "310000"}, {"_id": 86, "month": "2015-01", "town": "BEDOK", "flat_type": "3 ROOM", "block": "100", "street_name": "BEDOK NTH AVE 4", "storey_range": "04 TO 06", "floor_area_sqm": "67", "flat_model": "New Generation", "lease_commence_date": "1978", "remaining_lease": "62", "resale_price": "310800"}, {"_id": 87, "month": "2015-01", "town": "BEDOK", "flat_type": "3 ROOM", "block": "103", "street_name": "BEDOK RESERVOIR RD", "storey_range": "04 TO 06", "floor_area_sqm": "70", "flat_model": "New Generation", "lease_commence_date": "1985", "remaining_lease": "69", "resale_price": "313000"}, {"_id": 88, "month": "2015-01", "town": "BEDOK", "flat_type": "3 ROOM", "block": "522", "street_name": "BEDOK NTH AVE 1", "storey_range": "10 TO 12", "floor_area_sqm": "67", "flat_model": "New Generation", "lease_commence_date": "1979", "remaining_lease": "63", "resale_price": "315000"}, {"_id": 89, "month": "2015-01", "town": "BEDOK", "flat_type": "3 ROOM", "block": "551", "street_name": "BEDOK NTH AVE 1", "storey_range": "04 TO 06", "floor_area_sqm": "67", "flat_model": "New Generation", "lease_commence_date": "1980", "remaining_lease": "64", "resale_price": "315000"}, {"_id": 90, "month": "2015-01", "town": "BEDOK", "flat_type": "3 ROOM", "block": "709", "street_name": "BEDOK RESERVOIR RD", "storey_range": "04 TO 06", "floor_area_sqm": "68", "flat_model": "New Generation", "lease_commence_date": "1981", "remaining_lease": "65", "resale_price": "315000"}, {"_id": 91, "month": "2015-01", "town": "BEDOK", "flat_type": "3 ROOM", "block": "608", "street_name": "BEDOK RESERVOIR RD", "storey_range": "10 TO 12", "floor_area_sqm": "67", "flat_model": "New Generation", "lease_commence_date": "1982", "remaining_lease": "66", "resale_price": "318000"}, {"_id": 92, "month": "2015-01", "town": "BEDOK", "flat_type": "3 ROOM", "block": "135", "street_name": "BEDOK NTH ST 2", "storey_range": "07 TO 09", "floor_area_sqm": "67", "flat_model": "New Generation", "lease_commence_date": "1978", "remaining_lease": "62", "resale_price": "320000"}, {"_id": 93, "month": "2015-01", "town": "BEDOK", "flat_type": "3 ROOM", "block": "40", "street_name": "CHAI CHEE AVE", "storey_range": "01 TO 03", "floor_area_sqm": "65", "flat_model": "Improved", "lease_commence_date": "1974", "remaining_lease": "58", "resale_price": "320000"}, {"_id": 94, "month": "2015-01", "town": "BEDOK", "flat_type": "3 ROOM", "block": "57", "street_name": "NEW UPP CHANGI RD", "storey_range": "04 TO 06", "floor_area_sqm": "68", "flat_model": "Improved", "lease_commence_date": "1985", "remaining_lease": "69", "resale_price": "320000"}, {"_id": 95, "month": "2015-01", "town": "BEDOK", "flat_type": "3 ROOM", "block": "420", "street_name": "BEDOK NTH ST 1", "storey_range": "04 TO 06", "floor_area_sqm": "68", "flat_model": "New Generation", "lease_commence_date": "1979", "remaining_lease": "63", "resale_price": "323000"}, {"_id": 96, "month": "2015-01", "town": "BEDOK", "flat_type": "3 ROOM", "block": "401", "street_name": "BEDOK NTH AVE 3", "storey_range": "10 TO 12", "floor_area_sqm": "67", "flat_model": "New Generation", "lease_commence_date": "1979", "remaining_lease": "63", "resale_price": "332000"}, {"_id": 97, "month": "2015-01", "town": "BEDOK", "flat_type": "3 ROOM", "block": "2", "street_name": "BEDOK STH AVE 1", "storey_range": "07 TO 09", "floor_area_sqm": "65", "flat_model": "Improved", "lease_commence_date": "1976", "remaining_lease": "60", "resale_price": "338000"}, {"_id": 98, "month": "2015-01", "town": "BEDOK", "flat_type": "3 ROOM", "block": "2", "street_name": "BEDOK STH AVE 1", "storey_range": "10 TO 12", "floor_area_sqm": "65", "flat_model": "Improved", "lease_commence_date": "1976", "remaining_lease": "60", "resale_price": "339000"}, {"_id": 99, "month": "2015-01", "town": "BEDOK", "flat_type": "3 ROOM", "block": "426", "street_name": "BEDOK NTH RD", "storey_range": "10 TO 12", "floor_area_sqm": "67", "flat_model": "New Generation", "lease_commence_date": "1979", "remaining_lease": "63", "resale_price": "342000"}, {"_id": 100, "month": "2015-01", "town": "BEDOK", "flat_type": "3 ROOM", "block": "116", "street_name": "BEDOK NTH RD", "storey_range": "07 TO 09", "floor_area_sqm": "73", "flat_model": "New Generation", "lease_commence_date": "1978", "remaining_lease": "62", "resale_price": "355000"}], "_links": {"start": "/api/action/datastore_search?resource_id=d_ea9ed51da2787afaf8e51f827c304208", "next": "/api/action/datastore_search?resource_id=d_ea9ed51da2787afaf8e51f827c304208&offset=100"}, "total": 37153}}