{"help": "https://data.gov.sg/api/3/action/help_show?name=datastore_search", "success": true, "result": {"resource_id": "d_43f493c6c50d54243cc1eab0df142d6a", "fields": [{"type": "text", "id": "month"}, {"type": "text", "id": "town"}, {"type": "text", "id": "flat_type"}, {"type": "text", "id": "block"}, {"type": "text", "id": "street_name"}, {"type": "text", "id": "storey_range"}, {"type": "text", "id": "floor_area_sqm"}, {"type": "text", "id": "flat_model"}, {"type": "text", "id": "lease_commence_date"}, {"type": "text", "id": "resale_price"}, {"type": "int4", "id": "_id"}], "records": [{"_id": 1, "month": "2000-01", "town": "ANG MO KIO", "flat_type": "3 ROOM", "block": "170", "street_name": "ANG MO KIO AVE 4", "storey_range": "07 TO 09", "floor_area_sqm": "69", "flat_model": "Improved", "lease_commence_date": "1986", "resale_price": "147000"}, {"_id": 2, "month": "2000-01", "town": "ANG MO KIO", "flat_type": "3 ROOM", "block": "174", "street_name": "ANG MO KIO AVE 4", "storey_range": "04 TO 06", "floor_area_sqm": "61", "flat_model": "Improved", "lease_commence_date": "1986", "resale_price": "144000"}, {"_id": 3, "month": "2000-01", "town": "ANG MO KIO", "flat_type": "3 ROOM", "block": "216", "street_name": "ANG MO KIO AVE 1", "storey_range": "07 TO 09", "floor_area_sqm": "73", "flat_model": "New Generation", "lease_commence_date": "1976", "resale_price": "159000"}, {"_id": 4, "month": "2000-01", "town": "ANG MO KIO", "flat_type": "3 ROOM", "block": "215", "street_name": "ANG MO KIO AVE 1", "storey_range": "07 TO 09", "floor_area_sqm": "73", "flat_model": "New Generation", "lease_commence_date": "1976", "resale_price": "167000"}, {"_id": 5, "month": "2000-01", "town": "ANG MO KIO", "flat_type": "3 ROOM", "block": "218", "street_name": "ANG MO KIO AVE 1", "storey_range": "07 TO 09", "floor_area_sqm": "67", "flat_model": "New Generation", "lease_commence_date": "1976", "resale_price": "163000"}, {"_id": 6, "month": "2000-01", "town": "ANG MO KIO", "flat_type": "3 ROOM", "block": "320", "street_name": "ANG MO KIO AVE 1", "storey_range": "04 TO 06", "floor_area_sqm": "73", "flat_model": "New Generation", "lease_commence_date": "1977", "resale_price": "157000"}, {"_id": 7, "month": "2000-01", "town": "ANG MO KIO", "flat_type": "3 ROOM", "block": "320", "street_name": "ANG MO KIO AVE 1", "storey_range": "07 TO 09", "floor_area_sqm": "73", "flat_model": "New Generation", "lease_commence_date": "1977", "resale_price": "178000"}, {"_id": 8, "month": "2000-01", "town": "ANG MO KIO", "flat_type": "3 ROOM", "block": "330", "street_name": "ANG MO KIO AVE 1", "storey_range": "07 TO 09", "floor_area_sqm": "68", "flat_model": "New Generation", "lease_commence_date": "1981", "resale_price": "160000"}, {"_id": 9, "month": "2000-01", "town": "ANG MO KIO", "flat_type": "3 ROOM", "block": "330", "street_name": "ANG MO KIO AVE 1", "storey_range": "04 TO 06", "floor_area_sqm": "68", "flat_model": "New Generation", "lease_commence_date": "1981", "resale_price": "169000"}, {"_id": 10, "month": "2000-01", "town": "ANG MO KIO", "flat_type": "3 ROOM", "block": "332", "street_name": "ANG MO KIO AVE 1", "storey_range": "07 TO 09", "floor_area_sqm": "82", "flat_model": "New Generation", "lease_commence_date": "1981", "resale_price": "205000"}, {"_id": 11, "month": "2000-01", "town": "ANG MO KIO", "flat_type": "3 ROOM", "block": "333", "street_name": "ANG MO KIO AVE 1", "storey_range": "01 TO 03", "floor_area_sqm": "68", "flat_model": "New Generation", "lease_commence_date": "1981", "resale_price": "155000"}, {"_id": 12, "month": "2000-01", "town": "ANG MO KIO", "flat_type": "3 ROOM", "block": "333", "street_name": "ANG MO KIO AVE 1", "storey_range": "04 TO 06", "floor_area_sqm": "82", "flat_model": "New Generation", "lease_commence_date": "1981", "resale_price": "205000"}, {"_id": 13, "month": "2000-01", "town": "ANG MO KIO", "flat_type": "3 ROOM", "block": "404", "street_name": "ANG MO KIO AVE 10", "storey_range": "10 TO 12", "floor_area_sqm": "67", "flat_model": "New Generation", "lease_commence_date": "1979", "resale_price": "161000"}, {"_id": 14, "month": "2000-01", "town": "ANG MO KIO", "flat_type": "3 ROOM", "block": "417", "street_name": "ANG MO KIO AVE 10", "storey_range": "13 TO 15", "floor_area_sqm": "74", "flat_model": "New Generation", "lease_commence_date": "1979", "resale_price": "178000"}, {"_id": 15, "month": "2000-01", "town": "ANG MO KIO", "flat_type": "3 ROOM", "block": "418", "street_name": "ANG MO KIO AVE 10", "storey_range": "10 TO 12", "floor_area_sqm": "74", "flat_model": "New Generation", "lease_commence_date": "1979", "resale_price": "158000"}, {"_id": 16, "month": "2000-01", "town": "ANG MO KIO", "flat_type": "3 ROOM", "block": "418", "street_name": "ANG MO KIO AVE 10", "storey_range": "13 TO 15", "floor_area_sqm": "74", "flat_model": "New Generation", "lease_commence_date": "1979", "resale_price": "160000"}, {"_id": 17, "month": "2000-01", "town": "ANG MO KIO", "flat_type": "3 ROOM", "block": "418", "street_name": "ANG MO KIO AVE 10", "storey_range": "10 TO 12", "floor_area_sqm": "74", "flat_model": "New Generation", "lease_commence_date": "1979", "resale_price": "160000"}, {"_id": 18, "month": "2000-01", "town": "ANG MO KIO", "flat_type": "3 ROOM", "block": "419", "street_name": "ANG MO KIO AVE 10", "storey_range": "04 TO 06", "floor_area_sqm": "74", "flat_model": "New Generation", "lease_commence_date": "1979", "resale_price": "159000"}, {"_id": 19, "month": "2000-01", "town": "ANG MO KIO", "flat_type": "3 ROOM", "block": "421", "street_name": "ANG MO KIO AVE 10", "storey_range": "04 TO 06", "floor_area_sqm": "74", "flat_model": "New Generation", "lease_commence_date": "1979", "resale_price": "155000"}, {"_id": 20, "month": "2000-01", "town": "ANG MO KIO", "flat_type": "3 ROOM", "block": "440", "street_name": "ANG MO KIO AVE 10", "storey_range": "04 TO 06", "floor_area_sqm": "67", "flat_model": "New Generation", "lease_commence_date": "1979", "resale_price": "176000"}, {"_id": 21, "month": "2000-01", "town": "ANG MO KIO", "flat_type": "3 ROOM", "block": "440", "street_name": "ANG MO KIO AVE 10", "storey_range": "07 TO 09", "floor_area_sqm": "67", "flat_model": "New Generation", "lease_commence_date": "1979", "resale_price": "166000"}, {"_id": 22, "month": "2000-01", "town": "ANG MO KIO", "flat_type": "3 ROOM", "block": "443", "street_name": "ANG MO KIO AVE 10", "storey_range": "07 TO 09", "floor_area_sqm": "67", "flat_model": "New Generation", "lease_commence_date": "1979", "resale_price": "162000"}, {"_id": 23, "month": "2000-01", "town": "ANG MO KIO", "flat_type": "3 ROOM", "block": "443", "street_name": "ANG MO KIO AVE 10", "storey_range": "07 TO 09", "floor_area_sqm": "67", "flat_model": "New Generation", "lease_commence_date": "1979", "resale_price": "162000"}, {"_id": 24, "month": "2000-01", "town": "ANG MO KIO", "flat_type": "3 ROOM", "block": "443", "street_name": "ANG MO KIO AVE 10", "storey_range": "10 TO 12", "floor_area_sqm": "82", "flat_model": "New Generation", "lease_commence_date": "1979", "resale_price": "198000"}, {"_id": 25, "month": "2000-01", "town": "ANG MO KIO", "flat_type": "3 ROOM", "block": "445", "street_name": "ANG MO KIO AVE 10", "storey_range": "04 TO 06", "floor_area_sqm": "67", "flat_model": "New Generation", "lease_commence_date": "1979", "resale_price": "181000"}, {"_id": 26, "month": "2000-01", "town": "ANG MO KIO", "flat_type": "3 ROOM", "block": "446", "street_name": "ANG MO KIO AVE 10", "storey_range": "01 TO 03", "floor_area_sqm": "68", "flat_model": "New Generation", "lease_commence_date": "1979", "resale_price": "158000"}, {"_id": 27, "month": "2000-01", "town": "ANG MO KIO", "flat_type": "3 ROOM", "block": "447", "street_name": "ANG MO KIO AVE 10", "storey_range": "04 TO 06", "floor_area_sqm": "68", "flat_model": "New Generation", "lease_commence_date": "1979", "resale_price": "149000"}, {"_id": 28, "month": "2000-01", "town": "ANG MO KIO", "flat_type": "3 ROOM", "block": "435", "street_name": "ANG MO KIO AVE 10", "storey_range": "04 TO 06", "floor_area_sqm": "67", "flat_model": "New Generation", "lease_commence_date": "1979", "resale_price": "159000"}, {"_id": 29, "month": "2000-01", "town": "ANG MO KIO", "flat_type": "3 ROOM", "block": "435", "street_name": "ANG MO KIO AVE 10", "storey_range": "07 TO 09", "floor_area_sqm": "67", "flat_model": "New Generation", "lease_commence_date": "1979", "resale_price": "162000"}, {"_id": 30, "month": "2000-01", "town": "ANG MO KIO", "flat_type": "3 ROOM", "block": "433", "street_name": "ANG MO KIO AVE 10", "storey_range": "07 TO 09", "floor_area_sqm": "67", "flat_model": "New Generation", "lease_commence_date": "1979", "resale_price": "168500"}, {"_id": 31, "month": "2000-01", "town": "ANG MO KIO", "flat_type": "3 ROOM", "block": "434", "street_name": "ANG MO KIO AVE 10", "storey_range": "10 TO 12", "floor_area_sqm": "67", "flat_model": "New Generation", "lease_commence_date": "1979", "resale_price": "177000"}, {"_id": 32, "month": "2000-01", "town": "ANG MO KIO", "flat_type": "3 ROOM", "block": "432", "street_name": "ANG MO KIO AVE 10", "storey_range": "04 TO 06", "floor_area_sqm": "67", "flat_model": "New Generation", "lease_commence_date": "1979", "resale_price": "162500"}, {"_id": 33, "month": "2000-01", "town": "ANG MO KIO", "flat_type": "3 ROOM", "block": "471", "street_name": "ANG MO KIO AVE 10", "storey_range": "10 TO 12", "floor_area_sqm": "67", "flat_model": "New Generation", "lease_commence_date": "1979", "resale_price": "172000"}, {"_id": 34, "month": "2000-01", "town": "ANG MO KIO", "flat_type": "3 ROOM", "block": "475", "street_name": "ANG MO KIO AVE 10", "storey_range": "01 TO 03", "floor_area_sqm": "82", "flat_model": "New Generation", "lease_commence_date": "1979", "resale_price": "204000"}, {"_id": 35, "month": "2000-01", "town": "ANG MO KIO", "flat_type": "3 ROOM", "block": "476", "street_name": "ANG MO KIO AVE 10", "storey_range": "04 TO 06", "floor_area_sqm": "67", "flat_model": "New Generation", "lease_commence_date": "1979", "resale_price": "166000"}, {"_id": 36, "month": "2000-01", "town": "ANG MO KIO", "flat_type": "3 ROOM", "block": "473", "street_name": "ANG MO KIO AVE 10", "storey_range": "10 TO 12", "floor_area_sqm": "67", "flat_model": "New Generation", "lease_commence_date": "1984", "resale_price": "143000"}, {"_id": 37, "month": "2000-01", "town": "ANG MO KIO", "flat_type": "3 ROOM", "block": "473", "street_name": "ANG MO KIO AVE 10", "storey_range": "04 TO 06", "floor_area_sqm": "67", "flat_model": "New Generation", "lease_commence_date": "1984", "resale_price": "163888"}, {"_id": 38, "month": "2000-01", "town": "ANG MO KIO", "flat_type": "3 ROOM", "block": "463", "street_name": "ANG MO KIO AVE 10", "storey_range": "07 TO 09", "floor_area_sqm": "68", "flat_model": "New Generation", "lease_commence_date": "1980", "resale_price": "158000"}, {"_id": 39, "month": "2000-01", "town": "ANG MO KIO", "flat_type": "3 ROOM", "block": "462", "street_name": "ANG MO KIO AVE 10", "storey_range": "04 TO 06", "floor_area_sqm": "68", "flat_model": "New Generation", "lease_commence_date": "1980", "resale_price": "150000"}, {"_id": 40, "month": "2000-01", "town": "ANG MO KIO", "flat_type": "3 ROOM", "block": "560", "street_name": "ANG MO KIO AVE 10", "storey_range": "01 TO 03", "floor_area_sqm": "67", "flat_model": "New Generation", "lease_commence_date": "1980", "resale_price": "149000"}, {"_id": 41, "month": "2000-01", "town": "ANG MO KIO", "flat_type": "3 ROOM", "block": "560", "street_name": "ANG MO KIO AVE 10", "storey_range": "07 TO 09", "floor_area_sqm": "67", "flat_model": "New Generation", "lease_commence_date": "1980", "resale_price": "170500"}, {"_id": 42, "month": "2000-01", "town": "ANG MO KIO", "flat_type": "3 ROOM", "block": "558", "street_name": "ANG MO KIO AVE 10", "storey_range": "10 TO 12", "floor_area_sqm": "67", "flat_model": "New Generation", "lease_commence_date": "1980", "resale_price": "188500"}, {"_id": 43, "month": "2000-01", "town": "ANG MO KIO", "flat_type": "3 ROOM", "block": "577", "street_name": "ANG MO KIO AVE 10", "storey_range": "01 TO 03", "floor_area_sqm": "67", "flat_model": "New Generation", "lease_commence_date": "1980", "resale_price": "155000"}, {"_id": 44, "month": "2000-01", "town": "ANG MO KIO", "flat_type": "3 ROOM", "block": "561", "street_name": "ANG MO KIO AVE 10", "storey_range": "07 TO 09", "floor_area_sqm": "68", "flat_model": "New Generation", "lease_commence_date": "1980", "resale_price": "172000"}, {"_id": 45, "month": "2000-01", "town": "ANG MO KIO", "flat_type": "3 ROOM", "block": "557", "street_name": "ANG MO KIO AVE 10", "storey_range": "10 TO 12", "floor_area_sqm": "68", "flat_model": "New Generation", "lease_commence_date": "1980", "resale_price": "155000"}, {"_id": 46, "month": "2000-01", "town": "ANG MO KIO", "flat_type": "3 ROOM", "block": "557", "street_name": "ANG MO KIO AVE 10", "storey_range": "04 TO 06", "floor_area_sqm": "68", "flat_model": "New Generation", "lease_commence_date": "1980", "resale_price": "185000"}, {"_id": 47, "month": "2000-01", "town": "ANG MO KIO", "flat_type": "3 ROOM", "block": "541", "street_name": "ANG MO KIO AVE 10", "storey_range": "01 TO 03", "floor_area_sqm": "82", "flat_model": "New Generation", "lease_commence_date": "1981", "resale_price": "185000"}, {"_id": 48, "month": "2000-01", "town": "ANG MO KIO", "flat_type": "3 ROOM", "block": "541", "street_name": "ANG MO KIO AVE 10", "storey_range": "07 TO 09", "floor_area_sqm": "82", "flat_model": "New Generation", "lease_commence_date": "1981", "resale_price": "194000"}, {"_id": 49, "month": "2000-01", "town": "ANG MO KIO", "flat_type": "3 ROOM", "block": "248", "street_name": "ANG MO KIO AVE 2", "storey_range": "10 TO 12", "floor_area_sqm": "67", "flat_model": "New Generation", "lease_commence_date": "1978", "resale_price": "155000"}, {"_id": 50, "month": "2000-01", "town": "ANG MO KIO", "flat_type": "3 ROOM", "block": "214", "street_name": "ANG MO KIO AVE 3", "storey_range": "04 TO 06", "floor_area_sqm": "67", "flat_model": "New Generation", "lease_commence_date": "1976", "resale_price": "153000"}, {"_id": 51, "month": "2000-01", "town": "ANG MO KIO", "flat_type": "3 ROOM", "block": "235", "street_name": "ANG MO KIO AVE 3", "storey_range": "04 TO 06", "floor_area_sqm": "67", "flat_model": "New Generation", "lease_commence_date": "1977", "resale_price": "158000"}, {"_id": 52, "month": "2000-01", "town": "ANG MO KIO", "flat_type": "3 ROOM", "block": "235", "street_name": "ANG MO KIO AVE 3", "storey_range": "10 TO 12", "floor_area_sqm": "67", "flat_model": "New Generation", "lease_commence_date": "1977", "resale_price": "176000"}, {"_id": 53, "month": "2000-01", "town": "ANG MO KIO", "flat_type": "3 ROOM", "block": "233", "street_name": "ANG MO KIO AVE 3", "storey_range": "04 TO 06", "floor_area_sqm": "67", "flat_model": "New Generation", "lease_commence_date": "1977", "resale_price": "155000"}, {"_id": 54, "month": "2000-01", "town": "ANG MO KIO", "flat_type": "3 ROOM", "block": "302", "street_name": "ANG MO KIO AVE 3", "storey_range": "04 TO 06", "floor_area_sqm": "73", "flat_model": "New Generation", "lease_commence_date": "1978", "resale_price": "198000"}, {"_id": 55, "month": "2000-01", "town": "ANG MO KIO", "flat_type": "3 ROOM", "block": "343", "street_name": "ANG MO KIO AVE 3", "storey_range": "04 TO 06", "floor_area_sqm": "73", "flat_model": "New Generation", "lease_commence_date": "1978", "resale_price": "206000"}, {"_id": 56, "month": "2000-01", "town": "ANG MO KIO", "flat_type": "3 ROOM", "block": "346", "street_name": "ANG MO KIO AVE 3", "storey_range": "07 TO 09", "floor_area_sqm": "88", "flat_model": "New Generation", "lease_commence_date": "1978", "resale_price": "222500"}, {"_id": 57, "month": "2000-01", "town": "ANG MO KIO", "flat_type": "3 ROOM", "block": "121", "street_name": "ANG MO KIO AVE 3", "storey_range": "07 TO 09", "floor_area_sqm": "82", "flat_model": "New Generation", "lease_commence_date": "1978", "resale_price": "210000"}, {"_id": 58, "month": "2000-01", "town": "ANG MO KIO", "flat_type": "3 ROOM", "block": "120", "street_name": "ANG MO KIO AVE 3", "storey_range": "04 TO 06", "floor_area_sqm": "67", "flat_model": "New Generation", "lease_commence_date": "1978", "resale_price": "172000"}, {"_id": 59, "month": "2000-01", "town": "ANG MO KIO", "flat_type": "3 ROOM", "block": "129", "street_name": "ANG MO KIO AVE 3", "storey_range": "04 TO 06", "floor_area_sqm": "73", "flat_model": "New Generation", "lease_commence_date": "1979", "resale_price": "164000"}, {"_id": 60, "month": "2000-01", "town": "ANG MO KIO", "flat_type": "3 ROOM", "block": "129", "street_name": "ANG MO KIO AVE 3", "storey_range": "07 TO 09", "floor_area_sqm": "73", "flat_model": "New Generation", "lease_commence_date": "1979", "resale_price": "177000"}, {"_id": 61, "month": "2000-01", "town": "ANG MO KIO", "flat_type": "3 ROOM", "block": "129", "street_name": "ANG MO KIO AVE 3", "storey_range": "10 TO 12", "floor_area_sqm": "73", "flat_model": "New Generation", "lease_commence_date": "1979", "resale_price": "165000"}, {"_id": 62, "month": "2000-01", "town": "ANG MO KIO", "flat_type": "3 ROOM", "block": "127", "street_name": "ANG MO KIO AVE 3", "storey_range": "07 TO 09", "floor_area_sqm": "67", "flat_model": "New Generation", "lease_commence_date": "1978", "resale_price": "177000"}, {"_id": 63, "month": "2000-01", "town": "ANG MO KIO", "flat_type": "3 ROOM", "block": "422", "street_name": "ANG MO KIO AVE 3", "storey_range": "13 TO 15", "floor_area_sqm": "73", "flat_model": "New Generation", "lease_commence_date": "1979", "resale_price": "176000"}, {"_id": 64, "month": "2000-01", "town": "ANG MO KIO", "flat_type": "3 ROOM", "block": "571", "street_name": "ANG MO KIO AVE 3", "storey_range": "07 TO 09", "floor_area_sqm": "82", "flat_model": "New Generation", "lease_commence_date": "1979", "resale_price": "238000"}, {"_id": 65, "month": "2000-01", "town": "ANG MO KIO", "flat_type": "3 ROOM", "block": "570", "street_name": "ANG MO KIO AVE 3", "storey_range": "01 TO 03", "floor_area_sqm": "67", "flat_model": "New Generation", "lease_commence_date": "1979", "resale_price": "154000"}, {"_id": 66, "month": "2000-01", "town": "ANG MO KIO", "flat_type": "3 ROOM", "block": "570", "street_name": "ANG MO KIO AVE 3", "storey_range": "07 TO 09", "floor_area_sqm": "67", "flat_model": "New Generation", "lease_commence_date": "1979", "resale_price": "163000"}, {"_id": 67, "month": "2000-01", "town": "ANG MO KIO", "flat_type": "3 ROOM", "block": "585", "street_name": "ANG MO KIO AVE 3", "storey_range": "10 TO 12", "floor_area_sqm": "67", "flat_model": "New Generation", "lease_commence_date": "1979", "resale_price": "178000"}, {"_id": 68, "month": "2000-01", "town": "ANG MO KIO", "flat_type": "3 ROOM", "block": "585", "street_name": "ANG MO KIO AVE 3", "storey_range": "04 TO 06", "floor_area_sqm": "67", "flat_model": "New Generation", "lease_commence_date": "1979", "resale_price": "162000"}, {"_id": 69, "month": "2000-01", "town": "ANG MO KIO", "flat_type": "3 ROOM", "block": "585", "street_name": "ANG MO KIO AVE 3", "storey_range": "10 TO 12", "floor_area_sqm": "67", "flat_model": "New Generation", "lease_commence_date": "1979", "resale_price": "174000"}, {"_id": 70, "month": "2000-01", "town": "ANG MO KIO", "flat_type": "3 ROOM", "block": "586", "street_name": "ANG MO KIO AVE 3", "storey_range": "07 TO 09", "floor_area_sqm": "67", "flat_model": "New Generation", "lease_commence_date": "1979", "resale_price": "173000"}, {"_id": 71, "month": "2000-01", "town": "ANG MO KIO", "flat_type": "3 ROOM", "block": "586", "street_name": "ANG MO KIO AVE 3", "storey_range": "04 TO 06", "floor_area_sqm": "67", "flat_model": "New Generation", "lease_commence_date": "1979", "resale_price": "170000"}, {"_id": 72, "month": "2000-01", "town": "ANG MO KIO", "flat_type": "3 ROOM", "block": "565", "street_name": "ANG MO KIO AVE 3", "storey_range": "10 TO 12", "floor_area_sqm": "68", "flat_model": "New Generation", "lease_commence_date": "1980", "resale_price": "183000"}, {"_id": 73, "month": "2000-01", "town": "ANG MO KIO", "flat_type": "3 ROOM", "block": "107", "street_name": "ANG MO KIO AVE 4", "storey_range": "01 TO 03", "floor_area_sqm": "73", "flat_model": "New Generation", "lease_commence_date": "1978", "resale_price": "138500"}, {"_id": 74, "month": "2000-01", "town": "ANG MO KIO", "flat_type": "3 ROOM", "block": "117", "street_name": "ANG MO KIO AVE 4", "storey_range": "07 TO 09", "floor_area_sqm": "73", "flat_model": "New Generation", "lease_commence_date": "1978", "resale_price": "148000"}, {"_id": 75, "month": "2000-01", "town": "ANG MO KIO", "flat_type": "3 ROOM", "block": "118", "street_name": "ANG MO KIO AVE 4", "storey_range": "04 TO 06", "floor_area_sqm": "73", "flat_model": "New Generation", "lease_commence_date": "1978", "resale_price": "154000"}, {"_id": 76, "month": "2000-01", "town": "ANG MO KIO", "flat_type": "3 ROOM", "block": "118", "street_name": "ANG MO KIO AVE 4", "storey_range": "04 TO 06", "floor_area_sqm": "88", "flat_model": "New Generation", "lease_commence_date": "1978", "resale_price": "198000"}, {"_id": 77, "month": "2000-01", "town": "ANG MO KIO", "flat_type": "3 ROOM", "block": "109", "street_name": "ANG MO KIO AVE 4", "storey_range": "04 TO 06", "floor_area_sqm": "67", "flat_model": "New Generation", "lease_commence_date": "1978", "resale_price": "146000"}, {"_id": 78, "month": "2000-01", "town": "ANG MO KIO", "flat_type": "3 ROOM", "block": "610", "street_name": "ANG MO KIO AVE 4", "storey_range": "04 TO 06", "floor_area_sqm": "82", "flat_model": "New Generation", "lease_commence_date": "1980", "resale_price": "191000"}, {"_id": 79, "month": "2000-01", "town": "ANG MO KIO", "flat_type": "3 ROOM", "block": "607", "street_name": "ANG MO KIO AVE 4", "storey_range": "04 TO 06", "floor_area_sqm": "68", "flat_model": "New Generation", "lease_commence_date": "1980", "resale_price": "157000"}, {"_id": 80, "month": "2000-01", "town": "ANG MO KIO", "flat_type": "3 ROOM", "block": "644", "street_name": "ANG MO KIO AVE 4", "storey_range": "07 TO 09", "floor_area_sqm": "89", "flat_model": "New Generation", "lease_commence_date": "1980", "resale_price": "203000"}, {"_id": 81, "month": "2000-01", "town": "ANG MO KIO", "flat_type": "3 ROOM", "block": "624", "street_name": "ANG MO KIO AVE 4", "storey_range": "10 TO 12", "floor_area_sqm": "82", "flat_model": "New Generation", "lease_commence_date": "1980", "resale_price": "196000"}, {"_id": 82, "month": "2000-01", "town": "ANG MO KIO", "flat_type": "3 ROOM", "block": "156", "street_name": "ANG MO KIO AVE 4", "storey_range": "07 TO 09", "floor_area_sqm": "68", "flat_model": "New Generation", "lease_commence_date": "1981", "resale_price": "151000"}, {"_id": 83, "month": "2000-01", "town": "ANG MO KIO", "flat_type": "3 ROOM", "block": "155", "street_name": "ANG MO KIO AVE 4", "storey_range": "04 TO 06", "floor_area_sqm": "82", "flat_model": "New Generation", "lease_commence_date": "1981", "resale_price": "207000"}, {"_id": 84, "month": "2000-01", "town": "ANG MO KIO", "flat_type": "3 ROOM", "block": "631", "street_name": "ANG MO KIO AVE 4", "storey_range": "10 TO 12", "floor_area_sqm": "67", "flat_model": "New Generation", "lease_commence_date": "1985", "resale_price": "165000"}, {"_id": 85, "month": "2000-01", "town": "ANG MO KIO", "flat_type": "3 ROOM", "block": "601", "street_name": "ANG MO KIO AVE 5", "storey_range": "10 TO 12", "floor_area_sqm": "67", "flat_model": "New Generation", "lease_commence_date": "1980", "resale_price": "155000"}, {"_id": 86, "month": "2000-01", "town": "ANG MO KIO", "flat_type": "3 ROOM", "block": "502", "street_name": "ANG MO KIO AVE 5", "storey_range": "10 TO 12", "floor_area_sqm": "68", "flat_model": "New Generation", "lease_commence_date": "1981", "resale_price": "175000"}, {"_id": 87, "month": "2000-01", "town": "ANG MO KIO", "flat_type": "3 ROOM", "block": "503", "street_name": "ANG MO KIO AVE 5", "storey_range": "10 TO 12", "floor_area_sqm": "68", "flat_model": "New Generation", "lease_commence_date": "1981", "resale_price": "172500"}, {"_id": 88, "month": "2000-01", "town": "ANG MO KIO", "flat_type": "3 ROOM", "block": "643", "street_name": "ANG MO KIO AVE 5", "storey_range": "04 TO 06", "floor_area_sqm": "75", "flat_model": "New Generation", "lease_commence_date": "1980", "resale_price": "157000"}, {"_id": 89, "month": "2000-01", "town": "ANG MO KIO", "flat_type": "3 ROOM", "block": "643", "street_name": "ANG MO KIO AVE 5", "storey_range": "01 TO 03", "floor_area_sqm": "89", "flat_model": "New Generation", "lease_commence_date": "1980", "resale_price": "236000"}, {"_id": 90, "month": "2000-01", "town": "ANG MO KIO", "flat_type": "3 ROOM", "block": "649", "street_name": "ANG MO KIO AVE 5", "storey_range": "04 TO 06", "floor_area_sqm": "75", "flat_model": "New Generation", "lease_commence_date": "1980", "resale_price": "175000"}, {"_id": 91, "month": "2000-01", "town": "ANG MO KIO", "flat_type": "3 ROOM", "block": "649", "street_name": "ANG MO KIO AVE 5", "storey_range": "07 TO 09", "floor_area_sqm": "75", "flat_model": "New Generation", "lease_commence_date": "1980", "resale_price": "153000"}, {"_id": 92, "month": "2000-01", "town": "ANG MO KIO", "flat_type": "3 ROOM", "block": "151", "street_name": "ANG MO KIO AVE 5", "storey_range": "07 TO 09", "floor_area_sqm": "68", "flat_model": "New Generation", "lease_commence_date": "1981", "resale_price": "166000"}, {"_id": 93, "month": "2000-01", "town": "ANG MO KIO", "flat_type": "3 ROOM", "block": "180", "street_name": "ANG MO KIO AVE 5", "storey_range": "07 TO 09", "floor_area_sqm": "68", "flat_model": "New Generation", "lease_commence_date": "1981", "resale_price": "145000"}, {"_id": 94, "month": "2000-01", "town": "ANG MO KIO", "flat_type": "3 ROOM", "block": "180", "street_name": "ANG MO KIO AVE 5", "storey_range": "04 TO 06", "floor_area_sqm": "68", "flat_model": "New Generation", "lease_commence_date": "1981", "resale_price": "160100"}, {"_id": 95, "month": "2000-01", "town": "ANG MO KIO", "flat_type": "3 ROOM", "block": "180", "street_name": "ANG MO KIO AVE 5", "storey_range": "07 TO 09", "floor_area_sqm": "68", "flat_model": "New Generation", "lease_commence_date": "1981", "resale_price": "185000"}, {"_id": 96, "month": "2000-01", "town": "ANG MO KIO", "flat_type": "3 ROOM", "block": "646", "street_name": "ANG MO KIO AVE 6", "storey_range": "07 TO 09", "floor_area_sqm": "75", "flat_model": "New Generation", "lease_commence_date": "1980", "resale_price": "167000"}, {"_id": 97, "month": "2000-01", "town": "ANG MO KIO", "flat_type": "3 ROOM", "block": "639", "street_name": "ANG MO KIO AVE 6", "storey_range": "10 TO 12", "floor_area_sqm": "82", "flat_model": "New Generation", "lease_commence_date": "1980", "resale_price": "210000"}, {"_id": 98, "month": "2000-01", "town": "ANG MO KIO", "flat_type": "3 ROOM", "block": "635", "street_name": "ANG MO KIO AVE 6", "storey_range": "10 TO 12", "floor_area_sqm": "68", "flat_model": "New Generation", "lease_commence_date": "1980", "resale_price": "179500"}, {"_id": 99, "month": "2000-01", "town": "ANG MO KIO", "flat_type": "3 ROOM", "block": "633", "street_name": "ANG MO KIO AVE 6", "storey_range": "10 TO 12", "floor_area_sqm": "67", "flat_model": "New Generation", "lease_commence_date": "1985", "resale_price": "185000"}, {"_id": 100, "month": "2000-01", "town": "ANG MO KIO", "flat_type": "3 ROOM", "block": "512", "street_name": "ANG MO KIO AVE 8", "storey_range": "07 TO 09", "floor_area_sqm": "68", "flat_model": "New Generation", "lease_commence_date": "1980", "resale_price": "163000"}], "_links": {"start": "/api/action/datastore_search?resource_id=d_43f493c6c50d54243cc1eab0df142d6a", "next": "/api/action/datastore_search?resource_id=d_43f493c6c50d54243cc1eab0df142d6a&offset=100"}, "total": 369651}}